 [
 {
	"entity": {
	  "name": "Spotlight",
	  "transform": {
		"pos": "-5 10 0",
		"angles" : "30 90 0"
	  },
	  "camera" : {
	  "visible_in_debug" : false
	  },
	  "culling" : {},
	  "light_spot": {
		"fov" : 45,
		"far" : 80,
		"near" : 5,
		"color": "1 1 1 1",
		"intensity": 16.0,
		"projector" : "data/textures/lights/projectors/normal_light.dds",
		"casts_shadows": true,
		"shadows_resolution": 1024,
		"shadows_fmt": "R32_TYPELESS"
	  }
	}
}
]