{
  "technique": "objs_culled_by_gpu.tech"
  ,
  "textures":
  {
    "albedo": "data/textures/arenas/muro_mercado_prefab/material_textura_provisional_muros/muros_temporales.dds"
    ,
    "normal": "data/textures/null_normal.dds"
    ,
    "metallic": "data/textures/null_metallic.dds"
    ,
    "roughness": "data/textures/null_roughness.dds"
    ,
    "emissive": "data/textures/null_emissive.dds"
    ,
    "height": "data/textures/null_height.dds"
    ,
    "ao": "data/textures/null_ao.dds"
  }
  ,
  "casts_shadows": true
  ,
  "shadows_material": "data/materials/shadows_instanced_gpu.material"
}
