{
  "technique": "objs_culled_by_gpu.tech"
  ,
  "textures":
  {
    "albedo": "data/textures/houses/casa_uno_prefab_dos/material_casauno_dos_ventana/casauno_dos_ventanas_Base_Color.dds"
    ,
    "normal": "data/textures/houses/casa_uno_prefab_dos/material_casauno_dos_ventana/casauno_dos_ventanas_Normal_OpenGL.dds"
    ,
    "metallic": "data/textures/houses/casa_uno_prefab_dos/material_casauno_dos_ventana/casauno_dos_ventanas_Metallic.dds"
    ,
    "roughness": "data/textures/houses/casa_uno_prefab_dos/material_casauno_dos_ventana/casauno_dos_ventanas_Roughness.dds"
    ,
    "emissive": "data/textures/null_emissive.dds"
    ,
    "height": "data/textures/null_height.dds"
    ,
    "ao": "data/textures/houses/casa_uno_prefab_dos/material_casauno_dos_ventana/casauno_dos_ventanas_Mixed_AO.dds"
  }
  ,
  "casts_shadows": true
  ,
  "shadows_material": "data/materials/shadows_instanced_gpu.material"
}
