[
    {
        "entity": {
            "name": "debris",
            "transform": {
                "pos": "0.0 0.0 0.0",
                "rotation": "0.0 0.0 0.0 -1.0"
            },
            "render": {
                "mesh": "data/meshes/figures_Box001.mesh",
                "color": "1.0 0.0 0.0 1.0",
                "scale": 0.1
            },
            "collider": {
                "shape": "box",
                "half_size": "0.1 0.1 0.1",
                "dynamic": true
            }
        }
    },
    {
        "entity": {
            "name": "debris_1",
            "transform": {
                "pos": "0.0 0.0 0.0",
                "rotation": "0.0 0.0 0.0 -1.0"
            },
            "render": {
                "mesh": "data/meshes/figures_Teapot001.mesh",
                "color": "1.0 0.0 0.0 1.0",
                "scale": 0.1
            },
            "collider": {
                "shape": "sphere",
                "radius": 0.1,
                "dynamic": true
            }
        }
    }
]