[
  {
    "entity":
    {
      "name": "Box001"
      ,
      "transform":
      {
        "pos": "0.0 0.0 0.0"
        ,
        "rotation": "0.0 0.0 0.0 -1.0"
      }
      ,
      "render":
      {
        "mesh": "data/meshes/cubeParallax_Box001.mesh"
        ,
        "color": "0.541176 0.0313726 0.431373 1.0"
        ,
        "materials":
        [
          "data/materials/Parallax3.material"
        ]
      }
      ,
      "abs_aabb":
      {
      }
    }
  }
]
