[
	{
		"entity" : {
			"name" : "demon-big-fireball",
			"transform" : {
        		"pos": "0 0 0",
        		"scale" : 3
			},		
			"render":
			{
				"mesh": "data/meshes/_RangedEnemyProjectile.mesh",
				"color": "1 0 0 1.0"
			},
			"collider":
			{
				"shape": "sphere",
				"radius": 1,
				"group": "trigger",
				"dynamic" : true,
				"kinematic" : true,
				"trigger": true
			},
			"enemy_ranged_projectile" : {
				"speed" : 5,
				"damage" : 50
			}
		}
	}
]

