[
	{
		"entity": {
			"name": "Lights",
			"tags" : ["lights"]
		}
	},
	{
		"entity": {
		  "name": "Sun",
		  "transform": {
			"pos": "-90 55 -7.4",
			"angles" : "45 90 0",
			"scale" : 10.0
		  },
		  "camera" : {},
		  "culling" : {},
		  "light_dir": {
			"color": "0.5 0.2706 0.22 1",
			"intensity": 4.0,
			"casts_shadows": true,
			"shadows_resolution": 1024,
			"shadows_step" : 1.5,
			"shadows_fmt": "R32_TYPELESS"
		  },
		  "render": {
			"color": "2.0 2.0 2.0 1.0",
			"meshes": [
			  {
				"mesh": "unit_quad_xy_centered.mesh",
				"material": "data/materials/sun/sun.material"
			  }
			]
		  },
		  "material_buffers": {
			"buffers": [
			  {
				"buffer_name": "Billboarding",
				"buffer_data" : {}
			  }
			]
		  }
		}
	}
]
