[
  {
    "entity":
    {
      "name": "powerIndicator"
      ,
      "transform":
      {
        "pos": "0.0 0.0 0.0"
        ,
        "rotation": "0.0 0.0 0.0 -1.0"
      }
      ,
      "render":
      {
        "mesh": "data/meshes/powerIndicatorPH.mesh"
        ,
        "material": "data/materials/purple.material"
        ,
        "color": "0.541176 0.0313726 0.431373 1.0"
      }
      ,
      "vortex_indicator" : 
      {

      }
    }
  }
]
