[
  {
    "entity": {
      "name": "Trap",
      "transform": {
        "pos": "0.0 0.0 0.0",
        "rotation": "0.0 0.0 0.0 -1.0"
      },
      "tags" : ["perception"],
      "collider": {
        "shapes": [
          {
            "shape": "box",
            "half_size": "0.8 0.25 0.8",
            "offset": {
              "pos": "0.0 0.25 0.0"
            },
            "group": "trigger",
            "trigger": true
          }
        ]
      },
      "render": {
        "meshes" : [
          {
            "mesh":"data/meshes/trapPH_Trap.mesh",
            "material" : "data/materials/yellow.material",
            "color": "0.898039 0.65098 0.843137 1.0",
            "state" : 0
          },
          {
            "mesh":"data/meshes/trapPH_Trap.mesh",
            "material" : "data/materials/perception_plain.material",
            "color": "0.898039 0.65098 0.843137 1.0",
            "state" : 1,
            "visible" : false
          }
        ]
      },
      "render_perception" : {
        "perception_color" : "1 1 0.458 1"
      },
      "trap" : {
        "movement" : {
          "movementDuration" : 1.5
        }
      }
    }
  }
]