[

  {
    "entity":
    {
      "name": "water_plane"
      ,
      "transform":
      {
        "pos": "0 0.25 0",
        "scale" : 1.0
      }
      ,
      "render":
      {
        "color" : "0.392 0.847 1 1",
        "mesh": "data/meshes/figures_Plane001.mesh"
        ,
        "materials":
        [
          "data/materials/water.material"
        ]
      }
    }
  }
]
