[ 
	{
		"entity" : {
			"name" : "Submachinegun",
			"transform" : {
				"pos" : "0 0 0.220",
				"scale" : 0.0035
			},
			"hierarchy" : {
				"parent" : "Submachinegun-handle"
			},
			"tags" : ["player", "perception"],
			"render": {
				"meshes": [
					{
						"mesh" : "data/meshes/weapons/BrandNewWeapon.mesh",
						"material" : "data/materials/plain.material",
						"color" : "0.980 0.509 0.0 1.0"
					},
					{
						"mesh" : "data/meshes/weapons/BrandNewWeapon.mesh",
						"material" : "data/materials/perception_plain.material",
						"state" : 1,
						"visible" : false
					},
					{
						"mesh" : "data/meshes/weapons/BrandNewWeapon.mesh",
						"material" : "data/materials/plain_blended.material",
						"color" : "0.603922 0.603922 0.898039 1.0",
						"state" : 2,
						"visible" : false
					}
				]
			},
			"render_perception" : {
				"perception_color" : "0 1 0 1.0"
			},
			"render_blending" : {},
			"local_aabb" : {},
			"abs_aabb" : {},
			"smg":{
				"weaponName" : "Smg",
				"damage" : 9,
				"rof" : 0.1,
				"dispersion" : 1,
				"effectiveDistance" : 30,
				"capacity" : 50,
				"reloadTime" : 1
			}
		}
	},
	{
		"entity" : {
			"name" : "Submachinegun-handle", 
			"transform" : {
				"pos" : "0 2 2"
			},
			"hierarchy" : {
				"parent" : "Right-Hand"
			}
		}
	}
]