{
	"main_menu" : 
	[
		"data/audio/UI.bank",
		"data/audio/Ambience.bank"
	],

	"gs_gametesting" : 
	[
		"data/audio/Effects.bank",
		"data/audio/Enemies.bank",
		"data/audio/Music.bank",
		"data/audio/Player.bank",
		"data/audio/UI.bank",
		"data/audio/Weapons.bank",
		"data/audio/Ambience.bank"
	],

	"gs_editor" : 
	[
		"data/audio/Effects.bank",
		"data/audio/Enemies.bank",
		"data/audio/Music.bank",
		"data/audio/Player.bank",
		"data/audio/UI.bank",
		"data/audio/Weapons.bank",
		"data/audio/Ambience.bank"
	]

}