{
  "technique": "objs_mix.tech",
  "type": "mix",
  "textures": { },
  "mats":[
    "data/materials/Final_FinalScene/Suelos/MaterialsSueloNormal/Mix_GroundDirt.material",
    "data/materials/Final_FinalScene/Suelos/MaterialsSueloNormal/Mix_GroundLightGrass.material",
    "data/materials/Final_FinalScene/Suelos/MaterialsSueloNormal/Mix_GroundGrass.material"
  ],
  "mix_blend_weights" : "data/textures/suelos/Mixing_Suelo5.dds",
  "ctes" : {
	"mix_scale_r" : 20.0,
	"mix_scale_g" : 10.0,
	"mix_scale_b" : 25.0
  }
}