{
  "textures":
  {
    "albedo": "data/textures/weapons/smg/smg_Base_Color.dds"
    ,
    "normal": "data/textures/weapons/smg/smg_Normal_DirectX.dds"
    ,
    "metallic": "data/textures/weapons/smg/smg_Metallic.dds"
    ,
    "roughness": "data/textures/weapons/smg/smg_Roughness.dds"
    ,
    "emissive": "data/textures/weapons/smg/Material _67_Emissive.dds"
    ,
    "height": "data/textures/null_height.dds"
    ,
    "ao": "data/textures/weapons/smg/smg_AmbientOcclusion.dds"
  }
  ,
  "casts_shadows": true
  ,
  "shadows_material": "data/materials/shadows.material"
}
