{
  "technique": "perception_objs.tech"
  ,
  "textures":
  {
    "albedo": "data/textures/weapons/guadana/guadana_Base_Color.dds"
    ,
    "normal": "data/textures/weapons/guadana/guadana_Normal_DirectX.dds"
    ,
    "metallic": "data/textures/weapons/guadana/guadana_Metallic.dds"
    ,
    "roughness": "data/textures/weapons/guadana/guadana_Roughness.dds"
    ,
    "emissive": "data/textures/null_emissive.dds"
    ,
    "height": "data/textures/null_height.dds"
    ,
    "ao": "data/textures/null_ao.dds"
  }
  ,
  "casts_shadows": true
  ,
  "shadows_material": "data/materials/shadows.material"
   ,
  "ctes" : {
	"extra_constant" : {
		"name" : "Perception",
		"data" : {
			"PerceptionMask" : "perception"
		}
	}
  },
  "category" : "perception"
}
