[

{
"bone": "Bip001 Pelvis",
"position": "-21.843113 0.490857 -3.796350",
"rotation": "0.436949 0.017096 -0.899095 0.020625"
},
{
"bone": "Bip001 Spine",
"position": "-21.903231 0.491528 -3.866645",
"rotation": "0.418332 0.023567 -0.907960 0.007775"
},
{
"bone": "Bip001 L Thigh",
"position": "-21.871868 0.496461 -3.746730",
"rotation": "-0.764425 0.059983 -0.634209 0.099203"
},
{
"bone": "Bip001 L Calf",
"position": "-21.809185 0.425786 -3.477175",
"rotation": "-0.722131 -0.029654 -0.691052 0.010152"
},
{
"bone": "Bip001 L Foot",
"position": "-21.797949 0.425820 -2.956606",
"rotation": "-0.679981 0.016501 -0.733034 0.004702"
},
{
"bone": "Bip001 R Thigh",
"position": "-21.757509 0.507711 -3.870225",
"rotation": "-0.749113 0.123446 -0.649951 0.034171"
},
{
"bone": "Bip001 R Calf",
"position": "-21.713083 0.433160 -3.598054",
"rotation": "-0.705954 0.039032 -0.704961 -0.056048"
},
{
"bone": "Bip001 R Foot",
"position": "-21.724520 0.425630 -3.078242",
"rotation": "-0.678138 0.047770 -0.733344 0.008323"
},
{
"bone": "Bip001 Spine2",
"position": "-22.044773 0.480962 -4.007413",
"rotation": "0.380594 0.011842 -0.924049 0.033905"
},
{
"bone": "Bip001 R UpperArm",
"position": "-22.018417 0.470807 -4.168671",
"rotation": "0.072004 -0.052778 -0.031646 -0.995511"
},
{
"bone": "Bip001 R ForeTwist",
"position": "-21.781643 0.424348 -4.165817",
"rotation": "0.082081 0.001036 0.134256 -0.987547"
},
{
"bone": "Bip001 R Forearm",
"position": "-21.786789 0.423453 -4.216995",
"rotation": "0.088537 -0.105973 0.127295 -0.982214"
},
{
"bone": "Bip001 R Hand",
"position": "-21.544018 0.383630 -4.155581",
"rotation": "-0.645921 0.047913 0.077985 -0.757905"
},
{
"bone": "Bip001 L UpperArm",
"position": "-22.186905 0.432768 -3.942016",
"rotation": "-0.151357 0.638846 -0.103713 -0.747142"
},
{
"bone": "Bip001 L ForeTwist",
"position": "-22.124186 0.422208 -3.709246",
"rotation": "-0.181400 0.594495 -0.065171 -0.780659"
},
{
"bone": "Bip001 L Forearm",
"position": "-22.128004 0.422137 -3.708252",
"rotation": "-0.180842 0.600895 -0.066458 -0.775768"
},
{
"bone": "Bip001 L Hand",
"position": "-22.032715 0.393901 -3.487751",
"rotation": "0.421520 0.448048 0.376074 -0.692931"
},
{
"bone": "Bip001 Head",
"position": "-22.167171 0.425546 -4.151300",
"rotation": "0.409652 0.036325 -0.911515 0.003763"
}

]