[

{
"bone": "Bip001 Pelvis",
"position": "-19.922596 0.490544 -3.599115",
"rotation": "0.223354 -0.021319 -0.972908 0.055875"
},
{
"bone": "Bip001 Spine",
"position": "-20.006041 0.488884 -3.638993",
"rotation": "0.221105 -0.010095 -0.975173 0.007763"
},
{
"bone": "Bip001 L Thigh",
"position": "-19.967379 0.507339 -3.509278",
"rotation": "-0.988328 0.120740 -0.046512 0.080487"
},
{
"bone": "Bip001 L Calf",
"position": "-19.694920 0.425164 -3.484325",
"rotation": "-0.996283 -0.025946 -0.010244 0.081521"
},
{
"bone": "Bip001 L Foot",
"position": "-19.175434 0.425449 -3.479072",
"rotation": "-0.997811 0.050376 0.000695 0.042991"
},
{
"bone": "Bip001 R Thigh",
"position": "-19.885317 0.476171 -3.677169",
"rotation": "-0.957972 -0.087182 -0.271859 0.028215"
},
{
"bone": "Bip001 R Calf",
"position": "-19.645678 0.506603 -3.524662",
"rotation": "-0.939314 -0.233524 -0.250923 -0.014201"
},
{
"bone": "Bip001 R Foot",
"position": "-19.243103 0.736377 -3.285246",
"rotation": "-0.940952 -0.258814 -0.218015 0.010382"
},
{
"bone": "Bip001 Spine2",
"position": "-20.177151 0.479211 -3.741896",
"rotation": "0.267482 -0.012726 -0.963236 0.021998"
},
{
"bone": "Bip001 R UpperArm",
"position": "-20.183359 0.457681 -3.904066",
"rotation": "0.100752 -0.152637 -0.014539 -0.983030"
},
{
"bone": "Bip001 R ForeTwist",
"position": "-19.966808 0.423752 -4.004978",
"rotation": "0.120238 -0.217176 0.083519 -0.965097"
},
{
"bone": "Bip001 R Forearm",
"position": "-19.969063 0.423747 -4.009680",
"rotation": "0.120395 -0.227679 0.082393 -0.962752"
},
{
"bone": "Bip001 R Hand",
"position": "-19.749035 0.385168 -4.101490",
"rotation": "-0.599737 -0.131751 0.218572 -0.758415"
},
{
"bone": "Bip001 L UpperArm",
"position": "-20.322674 0.431370 -3.684147",
"rotation": "-0.154058 0.657664 -0.094280 -0.731344"
},
{
"bone": "Bip001 L ForeTwist",
"position": "-20.305626 0.422472 -3.443608",
"rotation": "-0.167450 0.667299 -0.080453 -0.721261"
},
{
"bone": "Bip001 L Forearm",
"position": "-20.317488 0.422493 -3.443062",
"rotation": "-0.164704 0.684972 -0.083900 -0.704738"
},
{
"bone": "Bip001 L Hand",
"position": "-20.271479 0.392995 -3.206559",
"rotation": "0.376772 0.525575 0.431822 -0.628770"
},
{
"bone": "Bip001 Head",
"position": "-20.333809 0.425731 -3.848448",
"rotation": "0.293392 0.007600 -0.955845 -0.015395"
}

]