{
  "technique": "objs_skin.tech",
  "casts_shadows": true,
  "textures":
  {
	  "albedo"     : "data/textures/player/player_Base_Color.dds",
	  "normal"     : "data/textures/player/player_normal.dds",
	  "metallic"   : "data/textures/player/player_Metallic.dds",
	  "roughness"  : "data/textures/player/player_Roughness.dds",
	  "ao" : "data/textures/player/player_AmbientOcclusion.dds"
  }
}
