[
    {
        "entity": {
            "name": "PosterIndia1",
            "prefab": "data/prefabs/decals/static/posterIndia1.json",
            "transform": {
                "angles": "-0.000000 -88.760170 0.000000",
                "pos": "-17.769970 1.963354 -5.317713"
            }
        }
    },
    {
        "entity": {
            "name": "PosterIndia4",
            "prefab": "data/prefabs/decals/static/posterIndia4.json",
            "transform": {
                "angles": "-0.000000 -88.760185 0.000000",
                "pos": "-17.844757 1.989599 -13.535703"
            }
        }
    },
    {
        "entity": {
            "name": "PosterIndia7",
            "prefab": "data/prefabs/decals/static/posterIndia7.json",
            "transform": {
                "angles": "-0.000000 -88.760185 0.000000",
                "pos": "-17.947409 2.132713 -18.664450"
            }
        }
    },
    {
        "entity": {
            "name": "PosterIndia9",
            "prefab": "data/prefabs/decals/static/posterIndia9.json",
            "transform": {
                "angles": "-0.000000 -88.760185 0.000000",
                "pos": "-17.947409 2.132713 -18.664450"
            }
        }
    },
    {
        "entity": {
            "name": "PosterIndia7",
            "prefab": "data/prefabs/decals/static/posterIndia7.json",
            "transform": {
                "angles": "-0.000000 -88.760185 0.000000",
                "pos": "-17.911209 2.025738 -16.763464"
            }
        }
    },
    {
        "entity": {
            "name": "PosterIndia4",
            "prefab": "data/prefabs/decals/static/posterIndia4.json",
            "transform": {
                "angles": "-0.000000 -88.760185 0.000000",
                "pos": "-17.885546 1.809134 -15.421886"
            }
        }
    },
    {
        "entity": {
            "name": "PosterIndia3",
            "prefab": "data/prefabs/decals/static/posterIndia3.json",
            "transform": {
                "angles": "-0.000000 -88.760185 0.000000",
                "pos": "-17.876202 1.702598 -14.990126"
            }
        }
    },
    {
        "entity": {
            "name": "PosterIndia9",
            "prefab": "data/prefabs/decals/static/posterIndia9.json",
            "transform": {
                "angles": "-0.000000 -88.760170 0.000000",
                "pos": "-17.717695 2.360523 -2.902918"
            }
        }
    },
    {
        "entity": {
            "name": "PosterIndia8",
            "prefab": "data/prefabs/decals/static/posterIndia8.json",
            "transform": {
                "angles": "-0.000000 -88.760170 0.000000",
                "pos": "-17.689413 2.265517 -1.596865"
            }
        }
    },
    {
        "entity": {
            "name": "PosterIndia6",
            "prefab": "data/prefabs/decals/static/posterIndia6.json",
            "transform": {
                "angles": "-0.000000 -88.760170 0.000000",
                "pos": "-17.744196 1.578260 -4.127408"
            }
        }
    },
    {
        "entity": {
            "name": "PosterIndia6",
            "prefab": "data/prefabs/decals/static/posterIndia6.json",
            "transform": {
                "angles": "-0.000000 91.239807 0.000000",
                "pos": "-17.330782 2.021451 -14.112504"
            }
        }
    },
    {
        "entity": {
            "name": "PosterIndia5",
            "prefab": "data/prefabs/decals/static/posterIndia5.json",
            "transform": {
                "angles": "-0.000000 91.239807 0.000000",
                "pos": "-17.364605 1.931517 -15.676828"
            }
        }
    },
    {
        "entity": {
            "name": "PosterIndia9",
            "prefab": "data/prefabs/decals/static/posterIndia9.json",
            "transform": {
                "angles": "-0.000000 91.239807 0.000000",
                "pos": "-17.389898 2.377269 -17.001354"
            }
        }
    },
    {
        "entity": {
            "name": "PosterIndia4",
            "prefab": "data/prefabs/decals/static/posterIndia4.json",
            "transform": {
                "angles": "-0.000000 91.239807 0.000000",
                "pos": "-17.429272 1.998706 -19.048923"
            }
        }
    },
    {
        "entity": {
            "name": "PosterIndia2",
            "prefab": "data/prefabs/decals/static/posterIndia2.json",
            "transform": {
                "angles": "-0.000000 91.239807 0.000000",
                "pos": "-17.402790 1.395903 -17.596949"
            }
        }
    },
    {
        "entity": {
            "name": "PosterIndia1-2",
            "prefab": "data/prefabs/decals/static/posterIndia1-2.json",
            "transform": {
                "angles": "-0.000000 91.239807 0.000000",
                "pos": "-17.313963 1.256242 -13.335371"
            }
        }
    },
    {
        "entity": {
            "name": "PosterIndia2",
            "prefab": "data/prefabs/decals/static/posterIndia2.json",
            "transform": {
                "angles": "-0.000000 91.239822 0.000000",
                "pos": "-17.119495 2.050500 0.408530"
            }
        }
    },
    {
        "entity": {
            "name": "PosterIndia1",
            "prefab": "data/prefabs/decals/static/posterIndia1.json",
            "transform": {
                "angles": "-0.000000 91.239822 0.000000",
                "pos": "-17.147604 1.410593 -0.887621"
            }
        }
    },
    {
        "entity": {
            "name": "PosterIndia3",
            "prefab": "data/prefabs/decals/static/posterIndia3.json",
            "transform": {
                "angles": "-0.000000 91.239830 0.000000",
                "pos": "-17.185755 1.957933 -2.649636"
            }
        }
    },
    {
        "entity": {
            "name": "PosterIndia5",
            "prefab": "data/prefabs/decals/static/posterIndia5.json",
            "transform": {
                "angles": "-0.000000 91.239830 0.000000",
                "pos": "-17.228933 1.324199 -4.644191"
            }
        }
    },
    {
        "entity": {
            "name": "PosterIndia1",
            "prefab": "data/prefabs/decals/static/posterIndia1.json",
            "transform": {
                "angles": "-0.000000 -89.999992 0.000000",
                "pos": "18.835531 2.205959 -2.952785"
            }
        }
    },
    {
        "entity": {
            "name": "PosterIndia1-2",
            "prefab": "data/prefabs/decals/static/posterIndia1-2.json",
            "transform": {
                "angles": "-0.000000 -89.999992 0.000000",
                "pos": "18.825932 2.231413 -4.336980"
            }
        }
    },
    {
        "entity": {
            "name": "PosterIndia5",
            "prefab": "data/prefabs/decals/static/posterIndia5.json",
            "transform": {
                "angles": "-0.000000 -89.999992 0.000000",
                "pos": "18.835531 2.180535 -1.240495"
            }
        }
    },
    {
        "entity": {
            "name": "PosterIndia3",
            "prefab": "data/prefabs/decals/static/posterIndia3.json",
            "transform": {
                "angles": "-0.000000 0.000000 0.000000",
                "pos": "24.737675 2.046526 2.166668"
            }
        }
    },
    {
        "entity": {
            "name": "PosterIndia2",
            "prefab": "data/prefabs/decals/static/posterIndia2.json",
            "transform": {
                "angles": "-0.000000 -9.999929 0.000000",
                "pos": "26.886208 1.966281 2.250695"
            }
        }
    },
    {
        "entity": {
            "name": "PosterIndia1",
            "prefab": "data/prefabs/decals/static/posterIndia1.json",
            "transform": {
                "angles": "-0.000000 -5.000032 0.000000",
                "pos": "28.434807 2.074563 2.498869"
            }
        }
    },
    {
        "entity": {
            "name": "PosterIndia5",
            "prefab": "data/prefabs/decals/static/posterIndia5.json",
            "transform": {
                "angles": "-0.000000 -179.999985 0.000000",
                "pos": "14.463654 1.935382 30.911331"
            }
        }
    },
    {
        "entity": {
            "name": "PosterIndia3",
            "prefab": "data/prefabs/decals/static/posterIndia3.json",
            "transform": {
                "angles": "-0.000000 -179.999985 0.000000",
                "pos": "10.929291 1.990868 30.911331"
            }
        }
    },
    {
        "entity": {
            "name": "PosterIndia5",
            "prefab": "data/prefabs/decals/static/posterIndia5.json",
            "transform": {
                "angles": "-0.000000 -179.999985 0.000000",
                "pos": "12.835295 1.824594 30.901731"
            }
        }
    },
    {
        "entity": {
            "name": "PosterIndia8",
            "prefab": "data/prefabs/decals/static/posterIndia8.json",
            "transform": {
                "angles": "-0.000000 -179.999985 0.000000",
                "pos": "16.826653 1.520610 30.901731"
            }
        }
    },
    {
        "entity": {
            "name": "PosterIndia9",
            "prefab": "data/prefabs/decals/static/posterIndia9.json",
            "transform": {
                "angles": "-0.000000 -179.999985 0.000000",
                "pos": "19.134872 1.624433 30.911331"
            }
        }
    },
    {
        "entity": {
            "name": "PosterIndia4",
            "prefab": "data/prefabs/decals/static/posterIndia4.json",
            "transform": {
                "angles": "-0.000000 -179.999985 0.000000",
                "pos": "7.211000 1.824625 30.911331"
            }
        }
    },
    {
        "entity": {
            "name": "PosterIndia8",
            "prefab": "data/prefabs/decals/static/posterIndia8.json",
            "transform": {
                "angles": "-0.000000 -179.999985 0.000000",
                "pos": "9.208435 1.873597 30.901731"
            }
        }
    },
    {
        "entity": {
            "name": "PosterIndia1-2",
            "prefab": "data/prefabs/decals/static/posterIndia1-2.json",
            "transform": {
                "angles": "-0.000000 -179.999985 0.000000",
                "pos": "3.583941 1.886494 30.901731"
            }
        }
    },
    {
        "entity": {
            "name": "PosterIndia1",
            "prefab": "data/prefabs/decals/static/posterIndia1.json",
            "transform": {
                "angles": "-0.000000 -110.000092 0.000000",
                "pos": "-3.801245 2.102180 48.045723"
            }
        }
    },
    {
        "entity": {
            "name": "PosterIndia5",
            "prefab": "data/prefabs/decals/static/posterIndia5.json",
            "transform": {
                "angles": "-0.000191 -105.269905 0.000000",
                "pos": "-5.474265 2.242651 50.538853"
            }
        }
    },
    {
        "entity": {
            "name": "PosterIndia5",
            "prefab": "data/prefabs/decals/static/posterIndia5.json",
            "transform": {
                "angles": "-0.000000 -110.000092 0.000000",
                "pos": "-4.253275 1.982979 49.287659"
            }
        }
    },
    {
        "entity": {
            "name": "PosterIndia5",
            "prefab": "data/prefabs/decals/static/posterIndia5.json",
            "transform": {
                "angles": "-0.000000 -100.000031 0.000000",
                "pos": "-3.488432 1.912447 46.754539"
            }
        }
    },
    {
        "entity": {
            "name": "PosterIndia5",
            "prefab": "data/prefabs/decals/static/posterIndia5.json",
            "transform": {
                "angles": "-0.000000 69.999901 0.000000",
                "pos": "-3.511100 1.692232 48.787457"
            }
        }
    },
    {
        "entity": {
            "name": "PosterIndia1",
            "prefab": "data/prefabs/decals/static/posterIndia1.json",
            "transform": {
                "angles": "-0.000000 69.999901 0.000000",
                "pos": "-3.206346 1.800145 47.950153"
            }
        }
    },
    {
        "entity": {
            "name": "PosterIndia3",
            "prefab": "data/prefabs/decals/static/posterIndia3.json",
            "transform": {
                "angles": "-0.000000 79.999954 0.000000",
                "pos": "-3.019739 1.556010 47.127499"
            }
        }
    },
    {
        "entity": {
            "name": "PosterIndia4",
            "prefab": "data/prefabs/decals/static/posterIndia4.json",
            "transform": {
                "angles": "-0.000000 79.999954 0.000000",
                "pos": "-2.900039 1.938012 46.448643"
            }
        }
    },
    {
        "entity": {
            "name": "PosterIndia6",
            "prefab": "data/prefabs/decals/static/posterIndia6.json",
            "transform": {
                "angles": "-0.000000 89.999992 0.000000",
                "pos": "-2.784382 1.517783 45.796349"
            }
        }
    },
    {
        "entity": {
            "name": "PosterIndia8",
            "prefab": "data/prefabs/decals/static/posterIndia8.json",
            "transform": {
                "angles": "-0.000000 0.000000 0.000000",
                "pos": "19.268372 1.825727 31.437668"
            }
        }
    },
    {
        "entity": {
            "name": "PosterIndia9",
            "prefab": "data/prefabs/decals/static/posterIndia9.json",
            "transform": {
                "angles": "-0.000000 0.000000 0.000000",
                "pos": "18.242813 1.838563 31.437668"
            }
        }
    },
    {
        "entity": {
            "name": "PosterIndia8",
            "prefab": "data/prefabs/decals/static/posterIndia8.json",
            "transform": {
                "angles": "-0.000000 0.000000 0.000000",
                "pos": "16.853172 1.860276 31.428068"
            }
        }
    },
    {
        "entity": {
            "name": "PosterIndia6",
            "prefab": "data/prefabs/decals/static/posterIndia6.json",
            "transform": {
                "angles": "-0.000000 0.000000 0.000000",
                "pos": "14.615852 1.888070 31.437668"
            }
        }
    },
    {
        "entity": {
            "name": "PosterIndia5",
            "prefab": "data/prefabs/decals/static/posterIndia5.json",
            "transform": {
                "angles": "-0.000000 0.000000 0.000000",
                "pos": "3.580546 1.873286 31.428068"
            }
        }
    },
    {
        "entity": {
            "name": "PosterIndia6",
            "prefab": "data/prefabs/decals/static/posterIndia6.json",
            "transform": {
                "angles": "-0.000000 0.000000 0.000000",
                "pos": "5.876384 1.760109 31.437668"
            }
        }
    },
    {
        "entity": {
            "name": "PosterIndia7",
            "prefab": "data/prefabs/decals/static/posterIndia7.json",
            "transform": {
                "angles": "-0.000000 0.000000 0.000000",
                "pos": "8.118322 1.688668 31.428068"
            }
        }
    },
    {
        "entity": {
            "name": "PosterIndia6",
            "prefab": "data/prefabs/decals/static/posterIndia6.json",
            "transform": {
                "angles": "-0.000000 0.000000 0.000000",
                "pos": "10.830568 1.970032 31.437668"
            }
        }
    },
    {
        "entity": {
            "name": "PosterIndia5",
            "prefab": "data/prefabs/decals/static/posterIndia5.json",
            "transform": {
                "angles": "-0.000000 0.000000 0.000000",
                "pos": "9.486346 1.733865 31.428068"
            }
        }
    },
    {
        "entity": {
            "name": "PosterIndia4",
            "prefab": "data/prefabs/decals/static/posterIndia4.json",
            "transform": {
                "angles": "-0.000000 0.000000 0.000000",
                "pos": "12.605793 1.815939 31.428068"
            }
        }
    },
    {
        "entity": {
            "name": "PosterIndia9",
            "prefab": "data/prefabs/decals/static/posterIndia9.json",
            "transform": {
                "angles": "-0.000082 -93.973640 -0.000000",
                "pos": "35.735519 2.488219 48.855621"
            }
        }
    },
    {
        "entity": {
            "name": "PosterIndia7",
            "prefab": "data/prefabs/decals/static/posterIndia7.json",
            "transform": {
                "angles": "-0.000082 -93.973640 -0.000000",
                "pos": "35.661148 2.573345 49.926201"
            }
        }
    },
    {
        "entity": {
            "name": "PosterIndia9",
            "prefab": "data/prefabs/decals/static/posterIndia9.json",
            "transform": {
                "angles": "-0.000075 -93.973640 0.000000",
                "pos": "35.793858 1.644792 48.015800"
            }
        }
    },
    {
        "entity": {
            "name": "PosterIndia5",
            "prefab": "data/prefabs/decals/static/posterIndia5.json",
            "transform": {
                "angles": "-0.000082 -93.973640 -0.000000",
                "pos": "35.771927 2.038567 48.331474"
            }
        }
    },
    {
        "entity": {
            "name": "PosterIndia2",
            "prefab": "data/prefabs/decals/static/posterIndia2.json",
            "transform": {
                "angles": "-0.000075 -93.973640 0.000000",
                "pos": "35.681309 1.276246 49.636002"
            }
        }
    },
    {
        "entity": {
            "name": "PosterIndia1",
            "prefab": "data/prefabs/decals/static/posterIndia1.json",
            "transform": {
                "angles": "-0.000075 -93.973640 0.000000",
                "pos": "35.455048 1.889750 52.893108"
            }
        }
    },
    {
        "entity": {
            "name": "PosterIndia2",
            "prefab": "data/prefabs/decals/static/posterIndia2.json",
            "transform": {
                "angles": "-0.000082 -93.973640 -0.000000",
                "pos": "35.394779 2.263249 53.760738"
            }
        }
    },
    {
        "entity": {
            "name": "PosterIndia3",
            "prefab": "data/prefabs/decals/static/posterIndia3.json",
            "transform": {
                "angles": "-0.000082 -93.973640 -0.000000",
                "pos": "35.339142 2.035993 54.561653"
            }
        }
    },
    {
        "entity": {
            "name": "PosterIndia4",
            "prefab": "data/prefabs/decals/static/posterIndia4.json",
            "transform": {
                "angles": "-0.000082 -93.973640 -0.000000",
                "pos": "35.257603 2.645225 55.735508"
            }
        }
    },
    {
        "entity": {
            "name": "PosterIndia4",
            "prefab": "data/prefabs/decals/static/posterIndia4.json",
            "transform": {
                "angles": "-0.000068 -103.973785 0.000000",
                "pos": "13.419577 2.381077 111.928062"
            }
        }
    },
    {
        "entity": {
            "name": "PosterIndia4",
            "prefab": "data/prefabs/decals/static/posterIndia4.json",
            "transform": {
                "angles": "-0.000068 -103.973785 0.000000",
                "pos": "13.158161 1.903594 112.978592"
            }
        }
    },
    {
        "entity": {
            "name": "PosterIndia3",
            "prefab": "data/prefabs/decals/static/posterIndia3.json",
            "transform": {
                "angles": "-0.000082 -103.973785 0.000000",
                "pos": "12.902866 2.375145 114.004532"
            }
        }
    },
    {
        "entity": {
            "name": "PosterIndia9",
            "prefab": "data/prefabs/decals/static/posterIndia9.json",
            "transform": {
                "angles": "-0.000956 -105.002731 0.000000",
                "pos": "16.557350 2.312177 106.281113"
            }
        }
    },
    {
        "entity": {
            "name": "PosterIndia7",
            "prefab": "data/prefabs/decals/static/posterIndia7.json",
            "transform": {
                "angles": "-0.000246 -115.004639 0.000000",
                "pos": "90.061501 2.463311 85.949089"
            }
        }
    },
    {
        "entity": {
            "name": "PosterIndia9",
            "prefab": "data/prefabs/decals/static/posterIndia9.json",
            "transform": {
                "angles": "-0.000956 -115.002670 0.000000",
                "pos": "92.168213 2.409470 81.431976"
            }
        }
    },
    {
        "entity": {
            "name": "CigarretesGround1",
            "prefab": "data/prefabs/decals/static/cigarretesGround1.json",
            "transform": {
                "angles": "-89.999992 0.000000 0.000000",
                "pos": "91.043198 0.547759 83.970459"
            }
        }
    },
    {
        "entity": {
            "name": "CigarretesGround2",
            "prefab": "data/prefabs/decals/static/cigarretesGround2.json",
            "transform": {
                "angles": "-89.999992 0.000000 0.000000",
                "pos": "90.008362 0.547759 84.008705"
            }
        }
    },
    {
        "entity": {
            "name": "PosterIndia1-2",
            "prefab": "data/prefabs/decals/static/posterIndia1-2.json",
            "transform": {
                "angles": "-0.000738 -90.002174 -0.000000",
                "pos": "131.533997 2.059806 115.507004"
            }
        }
    },
    {
        "entity": {
            "name": "PosterIndia1",
            "prefab": "data/prefabs/decals/static/posterIndia1.json",
            "transform": {
                "angles": "0.267773 -89.928299 0.000000",
                "pos": "188.361832 2.610291 115.513947"
            }
        }
    },
    {
        "entity": {
            "name": "PosterIndia1-2",
            "prefab": "data/prefabs/decals/static/posterIndia1-2.json",
            "transform": {
                "angles": "0.267773 -89.928299 0.000000",
                "pos": "188.363586 2.479165 116.427933"
            }
        }
    },
    {
        "entity": {
            "name": "PosterIndia3",
            "prefab": "data/prefabs/decals/static/posterIndia3.json",
            "transform": {
                "angles": "0.267773 -89.928299 0.000000",
                "pos": "188.363602 2.757987 117.491081"
            }
        }
    },
    {
        "entity": {
            "name": "PosterIndia4",
            "prefab": "data/prefabs/decals/static/posterIndia4.json",
            "transform": {
                "angles": "0.267773 -90.071678 -0.000000",
                "pos": "188.364059 2.593091 100.878220"
            }
        }
    },
    {
        "entity": {
            "name": "PosterIndia5",
            "prefab": "data/prefabs/decals/static/posterIndia5.json",
            "transform": {
                "angles": "0.267773 -90.071678 -0.000000",
                "pos": "188.363892 2.354409 101.910065"
            }
        }
    },
    {
        "entity": {
            "name": "PosterIndia8",
            "prefab": "data/prefabs/decals/static/posterIndia8.json",
            "transform": {
                "angles": "0.267773 -90.071678 -0.000000",
                "pos": "188.360352 2.860854 102.842087"
            }
        }
    },
    {
        "entity": {
            "name": "PosterIndia9",
            "prefab": "data/prefabs/decals/static/posterIndia9.json",
            "transform": {
                "angles": "0.001311 -89.993004 -0.000000",
                "pos": "191.954056 2.829367 104.953804"
            }
        }
    },
    {
        "entity": {
            "name": "PosterIndia7",
            "prefab": "data/prefabs/decals/static/posterIndia7.json",
            "transform": {
                "angles": "0.205029 -21.424923 0.000000",
                "pos": "189.105698 2.940991 103.530907"
            }
        }
    },
    {
        "entity": {
            "name": "PosterIndia5",
            "prefab": "data/prefabs/decals/static/posterIndia5.json",
            "transform": {
                "angles": "0.097617 -90.003059 0.000000",
                "pos": "192.963470 2.457997 124.530502"
            }
        }
    },
    {
        "entity": {
            "name": "PosterIndia9",
            "prefab": "data/prefabs/decals/static/posterIndia9.json",
            "transform": {
                "angles": "0.098846 -89.988647 -0.000000",
                "pos": "192.963684 2.371993 126.499153"
            }
        }
    },
    {
        "entity": {
            "name": "PosterIndia8",
            "prefab": "data/prefabs/decals/static/posterIndia8.json",
            "transform": {
                "angles": "0.098833 -90.001747 0.000000",
                "pos": "192.963287 2.578872 128.230301"
            }
        }
    },
    {
        "entity": {
            "name": "PosterIndia9",
            "prefab": "data/prefabs/decals/static/posterIndia9.json",
            "transform": {
                "angles": "0.097617 -90.003059 0.000000",
                "pos": "192.962128 3.214289 125.670486"
            }
        }
    },
    {
        "entity": {
            "name": "PosterIndia6",
            "prefab": "data/prefabs/decals/static/posterIndia6.json",
            "transform": {
                "angles": "0.098833 -90.001747 0.000000",
                "pos": "192.962067 3.304067 127.315186"
            }
        }
    },
    {
        "entity": {
            "name": "PosterIndia8",
            "prefab": "data/prefabs/decals/static/posterIndia8.json",
            "transform": {
                "angles": "-0.000000 -100.000298 0.000000",
                "pos": "338.272217 2.427000 120.774277"
            }
        }
    },
    {
        "entity": {
            "name": "PosterIndia5",
            "prefab": "data/prefabs/decals/static/posterIndia5.json",
            "transform": {
                "angles": "0.018127 -99.985046 0.000000",
                "pos": "339.403442 2.618623 114.356766"
            }
        }
    },
    {
        "entity": {
            "name": "PosterIndia4",
            "prefab": "data/prefabs/decals/static/posterIndia4.json",
            "transform": {
                "angles": "0.000007 -100.000298 0.000000",
                "pos": "338.494324 1.998539 119.514694"
            }
        }
    },
    {
        "entity": {
            "name": "PosterIndia1",
            "prefab": "data/prefabs/decals/static/posterIndia1.json",
            "transform": {
                "angles": "0.044806 -100.012222 0.000000",
                "pos": "339.760956 2.053635 112.331482"
            }
        }
    },
    {
        "entity": {
            "name": "PosterIndia3",
            "prefab": "data/prefabs/decals/static/posterIndia3.json",
            "transform": {
                "angles": "0.136303 -100.002884 -0.000000",
                "pos": "342.825409 1.873012 109.771103"
            }
        }
    }
]
