{
  "textures":
  {
    "albedo": "data/textures/houses/casa_de_paso_dos_prefab/material_casadepaso_dos/casa_de_paso_dos_Base_Color.dds"
    ,
    "normal": "data/textures/houses/casa_de_paso_dos_prefab/material_casadepaso_dos/casa_de_paso_dos_Normal_OpenGL.dds"
    ,
    "metallic": "data/textures/houses/casa_de_paso_dos_prefab/material_casadepaso_dos/casa_de_paso_dos_Metallic.dds"
    ,
    "roughness": "data/textures/houses/casa_de_paso_dos_prefab/material_casadepaso_dos/casa_de_paso_dos_Roughness.dds"
    ,
    "emissive": "data/textures/null_emissive.dds"
    ,
    "height": "data/textures/null_height.dds"
    ,
    "ao": "data/textures/houses/casa_de_paso_dos_prefab/material_casadepaso_dos/casa_de_paso_dos_Mixed_AO.dds"
  }
  ,
  "casts_shadows": true
  ,
  "shadows_material": "data/materials/shadows.material"
}
