{
  "textures":
  {
    "albedo": "data/textures/props/Cart/material_Material_Cart/Cart_Base_Color.dds"
    ,
    "normal": "data/textures/props/Cart/material_Material_Cart/Cart_Normal_OpenGL.dds"
    ,
    "metallic": "data/textures/props/Cart/material_Material_Cart/Cart_Metallic.dds"
    ,
    "roughness": "data/textures/props/Cart/material_Material_Cart/Cart_Roughness.dds"
    ,
    "emissive": "data/textures/null_emissive.dds"
    ,
    "height": "data/textures/null_height.dds"
    ,
    "ao": "data/textures/props/Cart/material_Material_Cart/Cart_Mixed_AO.dds"
  }
  ,
  "casts_shadows": true
  ,
  "shadows_material": "data/materials/shadows.material"
}
