{
  "technique": "objs_culled_by_gpu.tech"
  ,
  "textures":
  {
    "albedo": "data/textures/arenas/lado_derecho_coliseo_prefab/material_pared_interior_arriba_uno/Material _647_Base_Color.dds"
    ,
    "normal": "data/textures/arenas/lado_derecho_coliseo_prefab/material_pared_interior_arriba_uno/Material _647_Normal_OpenGL.dds"
    ,
    "metallic": "data/textures/arenas/lado_derecho_coliseo_prefab/material_pared_interior_arriba_uno/Material _647_Metallic.dds"
    ,
    "roughness": "data/textures/arenas/lado_derecho_coliseo_prefab/material_pared_interior_arriba_uno/Material _647_Roughness.dds"
    ,
    "emissive": "data/textures/null_emissive.dds"
    ,
    "height": "data/textures/null_height.dds"
    ,
    "ao": "data/textures/arenas/lado_derecho_coliseo_prefab/material_pared_interior_arriba_uno/Material _647_Mixed_AO.dds"
  }
  ,
  "casts_shadows": true
  ,
  "shadows_material": "data/materials/shadows_instanced_gpu.material"
}
