{
  "technique": "objs_culled_by_gpu.tech"
  ,
  "textures":
  {
    "albedo": "data/textures/props/wall_1/material_Material_wall_1/wall_1_Base_Color.dds"
    ,
    "normal": "data/textures/props/wall_1/material_Material_wall_1/wall_1_Normal_OpenGL.dds"
    ,
    "metallic": "data/textures/props/wall_1/material_Material_wall_1/wall_1_Metallic.dds"
    ,
    "roughness": "data/textures/props/wall_1/material_Material_wall_1/wall_1_Roughness.dds"
    ,
    "emissive": "data/textures/null_emissive.dds"
    ,
    "height": "data/textures/null_height.dds"
    ,
    "ao": "data/textures/props/wall_1/material_Material_wall_1/wall_1_Mixed_AO.dds"
  }
  ,
  "casts_shadows": true
  ,
  "shadows_material": "data/materials/shadows_instanced_gpu.material"
}
