{
  "textures":
  {
    "albedo": "data/textures/suelos/SueloArena/ArenaG.dds",
    "normal": "data/textures/suelos/SueloArena/ArenaGNormal.dds",
    "metallic": "data/textures/black.dds",
    "roughness": "data/textures/white.dds"
  }
}