[
  {
    "entity":
    {
      "name": "cabeza_arena"
      ,
      "transform":
      {
        "pos": "0.0 0.0 0.0"
        ,
        "rotation": "0.0 0.0 0.0 -1.0"
      }
      ,
      "collider":
      {
        "shapes":
        [
          {
            "shape": "trimesh"
            ,
            "collision_mesh": "data/meshes/arenas/cabeza_arena_prefab/cabeza_arena_collider.col_mesh"
            ,
            "group": "scenario"
          }
        ]
      }
      ,
      "render":
      {
        "mesh": "data/meshes/arenas/cabeza_arena_prefab/cabeza_arena.mesh"
        ,
        "color": "0.0 0.0 0.0 1.0"
        ,
        "can_be_instanced": true
        ,
        "materials":
        [
          "data/materials/arenas/cabeza_arena_prefab/material_cabezarena/material_cabezarena.material"
        ]
      }
      ,
      "abs_aabb":
      {
      }
    }
  }
]
