[
  {
    "entity":
    {
      "name": "muro_azul_con_torre"
      ,
      "transform":
      {
        "pos": "0.0 0.0 0.0"
      }
      ,
      "collider":
      {
        "shapes":
        [
          {
            "shape": "trimesh"
            ,
            "collision_mesh": "data/meshes/arenas/muro_azul_torre_prefab/muro_azul_con_torre_collider.col_mesh"
            ,
            "group": "scenario"
          }
        ]
      }
      ,
      "render":
      {
        "mesh": "data/meshes/arenas/muro_azul_torre_prefab/muro_azul_con_torre.mesh"
        ,
        "color": "0.0 0.0 0.0 1.0"
        ,
        "can_be_instanced": true
        ,
        "materials":
        [
          "data/materials/arenas/muro_azul_torre_prefab/material_muroazultext/material_muroazultext.material"
        ]
      }
      ,
      "abs_aabb":
      {
      }
    }
  }
]
