{
	"name" : "black_screen",
	"alias" :"black_screen",
	"children" : 
	[
		{
			"name": "black_screen_image",
			"type": "image",
			"texture": "data/textures/black.dds",
			"size": "1920 1080",
			"position": "0 0",
			"color": "255 255 255 0",
			"animations": [
				{"path": "data/ui/animations/BlackScreenFadeOut.json"},
				{"path": "data/ui/animations/BlackScreenFadeOutInstant.json"},
				{"path": "data/ui/animations/BlackScreenFadeIn.json"},
				{"path": "data/ui/animations/FinalBlackScreenFadeOut.json"},
				{"path": "data/ui/animations/FinalBlackScreenFadeIn.json"},
				{"path": "data/ui/animations/BlackScreenFadeOut3s.json"},
				{"path": "data/ui/animations/BlackScreenFadeIn3s.json"},
				{"path": "data/ui/animations/BlackScreenFadeOut3sAlreadyBlack.json"},
				{"path": "data/ui/animations/BlackScreenFadeTransition.json"}
			]
		}
	]
}   