{
	"name" : "loading_screen",
	"alias" :"loading_screen",
	"children" : 
	[
		{
			"name" : "background",
			"type" : "image",
			"texture" : "data/textures/black.dds",
			"size" : "1920 1080"
		},
		{
			"name": "logo",
			"type": "image",
			"texture": "data/ui/textures/menu/dooshan_title.dds",
			"size" : "338 81",
			"position" : " 50 50"
		},
		{
			"name" : "loading_circle",
			"type" : "image",
			"texture" : "data/ui/textures/ProgressHead.dds",
			"size" : "256 256",
			"position" : "1600 750",
			"frame_size" : "0.25 0.25",
			"count_frames" : "4 4",
			"frame_duration" : 0.1,
			"is_animation_looped" : true
		}
	]
}