{
	"name" : "splash",
	"alias" :"splash",
	"children" : 
	[
		{
			"name" : "splash_image",
			"type" : "image",
			"texture" : "data/ui/textures/splash_screen_logos.dds",
			"size" : "1920 1080"
		}
	]
}