{
	"name" : "text_font_examples",
	"alias" :"text_font_examples",
	"children" : 
	[
		{
			"name": 			"text_base",
			"type": 			"text_font",
			"text": 			"This is a normal text ,.- 0123456789!?*",
			"font_name": 		"Rush_16_normal",
			"position":			"960 100",
			"scale": 			"1 1",
			"rotation": 		0,
			"text_color":   	"1 1 1 1",
			"effect_color": 	"0 0 0 1",
			"has_outline":		false,
			"has_drop_shadow": 	false
		},
		{
			"name": 			"text_base_outline",
			"type": 			"text_font",
			"text": 			"This is a outline text ,.- 0123456789!?*",
			"font_name": 		"Rush_16_normal",
			"position":			"960 200",
			"scale": 			"1 1",
			"rotation": 		0,
			"text_color":   	"1 0 1 1",
			"effect_color": 	"0 0 0 1",
			"has_outline":		true,
			"has_drop_shadow": 	false
		},
		{
			"name": 			"text_base_shadow",
			"type": 			"text_font",
			"text": 			"This is a shadow text ,.- 0123456789!?*",
			"font_name": 		"Rush_16_normal",
			"position":			"960 300",
			"scale": 			"1 1",
			"rotation": 		0,
			"text_color":   	"1 1 0 1",
			"effect_color": 	"1 0 0 1",
			"has_outline":		false,
			"has_drop_shadow": 	true
		},
		{
			"name": 			"text_bold",
			"type": 			"text_font",
			"text": 			"This is a bold text ,.- 0123456789!?*",
			"font_name": 		"Rush_16_bold",
			"position":			"960 400",
			"scale": 			"1 1",
			"rotation": 		0,
			"text_color":   	"1 1 1 1",
			"effect_color": 	"0 0 0 1",
			"has_outline":		false,
			"has_drop_shadow": 	false
		},
		{
			"name": 			"text_italic",
			"type": 			"text_font",
			"text": 			"This is a italic text ,.- 0123456789!?*",
			"font_name": 		"Rush_16_italic",
			"position":			"960 500",
			"scale": 			"1 1",
			"rotation": 		0,
			"text_color":   	"0 1 1 1",
			"effect_color": 	"0 0 0 1",
			"has_outline":		false,
			"has_drop_shadow": 	false
		},
		{
			"name": 			"text_scaled",
			"type": 			"text_font",
			"text": 			"This is a scaled text ,.- 0123456789!?*",
			"font_name": 		"Rush_16_italic",
			"position":			"960 600",
			"scale": 			"1.5 1.5",
			"rotation": 		0,
			"text_color":   	"0.5 0.5 1 1",
			"effect_color": 	"0 0 0 1",
			"has_outline":		false,
			"has_drop_shadow": 	false
		},
		{
			"name": 			"text_rotated",
			"type": 			"text_font",
			"text": 			"This is a rotated text ,.- 0123456789!?*",
			"font_name": 		"Rush_16_italic",
			"position":			"100 300",
			"scale": 			"1 1",
			"rotation": 		90,
			"text_color":   	"0 1 1 1",
			"effect_color": 	"0 0 0 1",
			"has_outline":		false,
			"has_drop_shadow": 	false
		}
		,
		{
			"name": 			"text_strikeout_another_font",
			"type": 			"text_font",
			"text": 			"This is another font strikeout text ,.- 0123456789!?*",
			"font_name": 		"Calibri_Light_16_strikeout",
			"position":			"960 700",
			"scale": 			"1 1",
			"rotation": 		0,
			"text_color":   	"0 1 0 1",
			"effect_color": 	"0 0 1 1",
			"has_outline":		true,
			"has_drop_shadow": 	false
		},
		{
			"name" : "background",
			"type" : "image",
			"texture" : "data/ui/textures/LoadingDooshan.dds",
			"position":	"0 0",
			"size" : "320 180"
		},
		{
			"name" : "loading_circle",
			"type" : "image",
			"texture" : "data/ui/textures/ProgressCircle.dds",
			"size" : "128 128",
			"position" : "768 200",
			"frame_size" : "0.25 0.25",
			"count_frames" : "4 4",
			"frame_duration" : 0.1,
			"is_animation_looped" : true
		},
		{
			"name" : "text_albert",
			"position" : "100 400",
			"type" : "text",
			"text" :  "THIS IS ANOTHER FONT STRIKEOUT TEXT ,.- 0123456789!?*",
			"font_texture" : "data/ui/textures/test/font.dds",
			"size" : "224 24",
			"font_size" : "20 20"
		}
	]
}