{
	"name" : "upfLogo",
	"alias" :"upfLogo",
	"children" : 
	[
		{
			"name" : "upf_logo_image",
			"type" : "image",
			"texture" : "data/ui/textures/menu/upfLogo.dds",
			"size" : "1920 1080"
		}
	]
}