{
  "technique": "pbr_decals_dynamic_colored_instanced.tech",
  "casts_shadows" : false,
  "category" : "decals",
  "textures":
  {
    "albedo": "data/textures/decals/blood2/blood2.dds",
    "normal": "data/textures/decals/blood2/blood2_normal.dds"
  }
}