{
  "technique": "pbr_decals_dynamic_instanced.tech",
  "casts_shadows" : false,
  "category" : "decals",
  "textures":
  {
    "albedo": "data/textures/decals/bulletHole6/bulletHole6.dds",
    "normal": "data/textures/decals/bulletHole6/bulletHole6_normal.dds"
  }
}