{
  "technique": "pbr_decals_dynamic_instanced.tech",
  "casts_shadows" : false,
  "category" : "decals",
  "textures":
  {
    "albedo": "data/textures/decals/bulletHole10/bulletHole10.dds",
    "normal": "data/textures/decals/bulletHole10/bulletHole10_normal.dds"
  }
}