{
    "casts_shadows": false,
    "category": "decals",
    "technique": "pbr_decals_gpu_culled.tech",
	"textures": {
		"albedo": "data/textures/decals/blood2/blood2.dds",
		"normal": "data/textures/decals/blood2/blood2_normal.dds"
	}
}
