{
	"casts_shadows": false,
	"category": "decals",
	"technique": "pbr_decals.tech",
	"textures": {
    "albedo": "data/textures/decals/blood1/blood1.dds",
    "normal": "data/textures/decals/blood1/blood1_normal.dds"
	}
}