{
	"casts_shadows": false,
	"category": "decals",
	"technique": "pbr_decals.tech",
  "textures":
  {
    "albedo": "data/textures/decals/bulletHole2/bulletHole2.dds",
    "normal": "data/textures/decals/bulletHole2/bulletHole2_normal.dds"
  }
}