{
    "casts_shadows": false,
    "category": "decals",
    "technique": "pbr_decals_gpu_culled.tech",
	"textures": {
		"albedo": "data/textures/decals/trash/CigarretesGround2.dds",
		"normal": "data/textures/decals/trash/CigarretesGround2Normal.dds"
	}
}
