{
    "casts_shadows": false,
    "category": "decals",
    "technique": "pbr_decals_gpu_culled.tech",
	"textures": {
		"albedo": "data/textures/decals/trash/CigarretesGround1.dds",
		"normal": "data/textures/decals/trash/CigarretesGround1Normal.dds"
	}
}
