{
	"resourcesPath" : "C:/Users/Gabi/Documents/Visual Studio 2017/Projects/Tabernet/bin/",
	"importPath" : "data/fsm/sources/",
	"exportPath" : "data/fsm/",
	"importExtension" : ".graphml",
	"exportExtension" : ".fsm"
}