{
  "technique": "objs_culled_by_gpu.tech"
  ,
  "textures":
  {
    "albedo": "data/textures/props/marketbox_pink/material_boxmarket_pink/box_market_05_Base_Color.dds"
    ,
    "normal": "data/textures/props/marketbox_pink/material_boxmarket_pink/box_market_05_Normal.dds"
    ,
    "metallic": "data/textures/null_metallic.dds"
    ,
    "roughness": "data/textures/null_roughness.dds"
    ,
    "emissive": "data/textures/null_emissive.dds"
    ,
    "height": "data/textures/null_height.dds"
    ,
    "ao": "data/textures/props/marketbox_pink/material_boxmarket_pink/box_market_05_Mixed_AO.dds"
  }
  ,
  "casts_shadows": true
  ,
  "shadows_material": "data/materials/shadows_instanced_gpu.material"
}
