[
  {
    "entity": {
      "name": "EnemyRanged",
      "transform": {
        "pos": "0 0 0",
        "rotation": "0.0 0.0 0.0 -1.0"
      },
      "prefab" : "data/prefab/enemies/ranged/enemyRanged.json",
      "render": {
        "meshes": [
          {
            "mesh": "data/skeletons/enemyRanged/enemyRanged.mesh",
            "material": "data/materials/enemyRanged/enemyRanged.material",
            "color": "1 0.5 0 1.0"
          },
          {
            "mesh": "data/skeletons/enemyRanged/enemyRanged.mesh",
            "material": "data/materials/enemyRanged/enemyRanged_perception.material",
            "color": "1 0.5 0 1.0",
            "state": 1,
            "visible": false
          },
          {
            "mesh": "data/skeletons/enemyRanged/enemyRanged.mesh",
            "material": "data/materials/enemyRanged/enemyRanged_blended.material",
            "color": "1 0.5 0 1.0",
            "state": 2,
            "visible": false
          },
          {
            "mesh": "data/skeletons/enemyRanged/enemyRanged.mesh",
            "material": "data/materials/red_skin.material",
            "state": 3,
            "visible" : false
          },
          {
            "mesh": "data/skeletons/enemyRanged/enemyRanged.mesh",
            "material": "data/materials/yellow_skin.material",
            "state": 4,
            "visible" : false
          },
          {
            "mesh":"data/skeletons/enemyRanged/enemyRanged.mesh",
            "material" : "data/materials/enemyRanged/enemyRanged_perception_xray.material",
            "state" : 5,
            "visible" : false
          }
        ]
      }
    }
  }
]