[
  {
    "prefab": {
      "file": "data/prefabs/enemies/ranged/enemyRangedSniper.prefab",
      "args": {
        "projectile_slots": [
          "data/prefabs/enemies/ranged/sniperProjectileRoof.json"
        ],
        "shooting_offsets": [
          "0 1.5 1"
        ]
      }
    }
  }
]