[
  {
    "prefab": {
      "file": "data/prefabs/enemies/ranged/projectile_with_trail.prefab",
      "args": {
        "scale" : 0.04,
        "lookat" : "0 0 1",

        "render": {
          "mesh": "data/meshes/shard.mesh",
          "material": "data/materials/ice_shard.material"
        },

        "collider_radius": 0.05,

        "speed": 18,
        "damage": 4,
        "distance_to_fail": 1.25,
        "yaw_speed": 0.5,
        "pitch_speed": 1,
        "target_offset": "0 1.25, 0",
        "shoot_particles": "data/particles/ice_fragment_shoot.particles",
        "collision_particles": "data/particles/ice_fragment_explosion.particles",
        "shoot_sound_event": "event:/Enemies/Ranged/RangedIceShoot",
        "collision_sound_event": "event:/Enemies/Ranged/RangedIceHit",
        "status_effects" : [
          {
            "movement_speed" : {
              "specifier" : "ice_projectile",
              "time" : 8,
              "speed_multiplier" : 0.6
            }
          }
        ],

        "trail_lifetime": 0.25,
        "trail_material": "data/materials/faded_trail.material",
        "trail_thickness": [
          {
            "interpolator": "circular_in",
            "start": 0.65,
            "end": 1,
            "start_value": 0.1,
            "end_value": 0.0
          }
        ],
        "trail_color": [
          {
            "percentage": 0,
            "color": "1 1 1 0.6"
          },
          {
            "percentage": 0.35,
            "color": "0.5 0.5 1 0.2"
          }
        ]
      }
    }
  }
]
