[
  {
    "entity":
    {
      "name": "RangedEnemyProjectileShooter"
      ,
      "transform":
      {
        "pos": "0.0 0.0 0.0"
        ,
        "scale" : 0
      }
      ,
      "enemy_ranged_projectile_shooter" : {
        "spin_speed" : 3,
        "fade_speed" : 2,
        "max_scale" : 2.5
      }
      ,
      "hierarchy" : {
        "parent" : ""
      }
    }
  }
]
