{
  "technique": "objs_culled_by_gpu.tech"
  ,
  "textures":
  {
    "albedo": "data/textures/houses/suelo_casadepaso_prefab_textuno/material_suelocasadepasotextuno/DefaultMaterial_Base_Color.dds"
    ,
    "normal": "data/textures/houses/suelo_casadepaso_prefab_textuno/material_suelocasadepasotextuno/DefaultMaterial_Normal_OpenGL.dds"
    ,
    "metallic": "data/textures/houses/suelo_casadepaso_prefab_textuno/material_suelocasadepasotextuno/DefaultMaterial_Metallic.dds"
    ,
    "roughness": "data/textures/houses/suelo_casadepaso_prefab_textuno/material_suelocasadepasotextuno/DefaultMaterial_Roughness.dds"
    ,
    "emissive": "data/textures/null_emissive.dds"
    ,
    "height": "data/textures/null_height.dds"
    ,
    "ao": "data/textures/houses/suelo_casadepaso_prefab_textuno/material_suelocasadepasotextuno/DefaultMaterial_Mixed_AO.dds"
  }
  ,
  "casts_shadows": true
  ,
  "shadows_material": "data/materials/shadows_instanced_gpu.material"
}
