[
  {
    "entity":
    {
      "name": "test_checkpoint_spawn"
      ,
      "transform":
      {
        "pos": "0 0 0"
      },
      "checkpoint": {
        "order": 0,
        "is_spawn": true
      },
      "script": {
        "path": "data/scripts/game/examples/checkpoints/checkpoint_spawn.lua"
      }
    }
  },
  {
    "entity":
    {
      "name": "santu"
      ,
      "transform":
      {
        "pos": "20 0 5"
        ,
        "rotation": "0.0 0.0 0.0 -1.0"
      }
      ,
      "prefab": "data/prefabs/props/santu.json"
    }
  },
  {
    "entity":
    {
      "name": "test_checkpoint"
      ,
      "transform":
      {
        "pos": "18 0 5"
      },
      "collider": {
        "shape": "box",
        "trigger" : true,
        "group": "trigger",
        "half_size": "4 2.5 4",
        "offset" : {
          "pos" : "2 2.5 0"
        },
        "mask": "player"
      },
      "checkpoint": {
        "order": 1
      },
      "script": {
        "path": "data/scripts/game/examples/checkpoints/checkpoint.lua"
      }
    }
  },
  {
    "entity":
    {
      "name": "santu2"
      ,
      "transform":
      {
        "pos": "40 0 5"
        ,
        "rotation": "0.0 0.0 0.0 -1.0"
      }
      ,
      "prefab": "data/prefabs/props/santu.json"
    }
  },
  {
    "entity":
    {
      "name": "test_checkpoint2"
      ,
      "transform":
      {
        "pos": "38 0 5"
      },
      "collider": {
        "shape": "box",
        "trigger" : true,
        "group": "trigger",
        "half_size": "4 2.5 4",
        "offset" : {
          "pos" : "2 2.5 0"
        },
        "mask": "player"
      },
      "checkpoint": {
        "order": 2
      },
      "script": {
        "path": "data/scripts/game/examples/checkpoints/checkpoint.lua"
      }
    }
  }
]