[
  {
    "entity":
    {
      "name": "LightRed"
      ,
      "transform":
      {
        "pos": "0.0 3.0 0.0"
      }
      ,
      "light_point": {
        "color": "1 1 1",
        "intensity" : 10,
        "radius" :  10
      }
    }
  }
]
