[
  {
    "entity":
    {
      "name": "ParallaxObjects"
    }
  },
  {
    "entity":
    {
      "name": "Parallax1",
	  "transform" : {
		"pos": "15.0 2.55 5",
		"angles" : "0 0 90"
	  },
	  "prefab" : "data/prefabs/cubeParallax.json"
    }
  },
  {
    "entity":
    {
      "name": "Parallax2",
	  "transform" : {
		"pos": "15.0 2.55 0",
		"angles" : "0 0 90",
		"scale" : 2.25
	  },
	  "prefab" : "data/prefabs/planeParallax.json"
    }
  },
  {
    "entity":
    {
      "name": "Parallax3",
	  "transform" : {
		"pos": "15.0 0 -5"
	  },
	  "prefab" : "data/prefabs/cylinderParallax.json"
    }
  }
]