{
  "textures":
  {
    "albedo": "data/textures/houses/casa_uno_prefab/material_casauno_paredes/casauno_paredes_color.dds"
    ,
    "normal": "data/textures/houses/casa_uno_prefab/material_casauno_paredes/casauno_paredes_Normal_OpenGL.dds"
    ,
    "metallic": "data/textures/houses/casa_uno_prefab/material_casauno_paredes/casauno_paredes_Metallic.dds"
    ,
    "roughness": "data/textures/houses/casa_uno_prefab/material_casauno_paredes/casauno_paredes_Roughness.dds"
    ,
    "emissive": "data/textures/null_emissive.dds"
    ,
    "height": "data/textures/null_height.dds"
    ,
    "ao": "data/textures/houses/casa_uno_prefab/material_casauno_paredes/casauno_paredes_Mixed_AO.dds"
  }
  ,
  "casts_shadows": true
  ,
  "shadows_material": "data/materials/shadows.material"
}
