{
  "textures":
  {
    "albedo": "data/textures/props/umbrella_1/material_Material_Paragua_1/paraguas_1_Base_Color.dds"
    ,
    "normal": "data/textures/props/umbrella_1/material_Material_Paragua_1/paraguas_1_Normal_OpenGL.dds"
    ,
    "metallic": "data/textures/props/umbrella_1/material_Material_Paragua_1/paraguas_1_Metallic.dds"
    ,
    "roughness": "data/textures/props/umbrella_1/material_Material_Paragua_1/paraguas_1_Roughness.dds"
    ,
    "emissive": "data/textures/null_emissive.dds"
    ,
    "height": "data/textures/null_height.dds"
    ,
    "ao": "data/textures/null_ao.dds"
  }
  ,
  "casts_shadows": true
  ,
  "shadows_material": "data/materials/shadows.material"
}
