{
  "textures":
  {
    "albedo": "data/textures/props/Sign_BHAVAN/material_Material_Sign_bhavan/sign_bhavan_Base_Color.dds"
    ,
    "normal": "data/textures/props/Sign_BHAVAN/material_Material_Sign_bhavan/sign_bhavan_Normal_OpenGL.dds"
    ,
    "metallic": "data/textures/null_metallic.dds"
    ,
    "roughness": "data/textures/props/Sign_BHAVAN/material_Material_Sign_bhavan/sign_bhavan_Roughness.dds"
    ,
    "emissive": "data/textures/null_emissive.dds"
    ,
    "height": "data/textures/null_height.dds"
    ,
    "ao": "data/textures/null_ao.dds"
  }
  ,
  "casts_shadows": true
  ,
  "shadows_material": "data/materials/shadows.material"
}
