{
  "textures":
  {
    "albedo": "data/textures/arenas/lado_derecho_coliseo_prefab/material_columna_medio_coliseo_derecha/Material _654_Base_Color.dds"
    ,
    "normal": "data/textures/arenas/lado_derecho_coliseo_prefab/material_columna_medio_coliseo_derecha/Material _654_Normal_OpenGL.dds"
    ,
    "metallic": "data/textures/arenas/lado_derecho_coliseo_prefab/material_columna_medio_coliseo_derecha/Material _654_Metallic.dds"
    ,
    "roughness": "data/textures/arenas/lado_derecho_coliseo_prefab/material_columna_medio_coliseo_derecha/Material _654_Roughness.dds"
    ,
    "emissive": "data/textures/null_emissive.dds"
    ,
    "height": "data/textures/null_height.dds"
    ,
    "ao": "data/textures/arenas/lado_derecho_coliseo_prefab/material_columna_medio_coliseo_derecha/Material _654_Mixed_AO.dds"
  }
  ,
  "casts_shadows": true
  ,
  "shadows_material": "data/materials/shadows.material"
}
