{
  "textures":
  {
    "albedo": "data/textures/arenas/balcon_arena_prefab/material_ventanasbalconarena/Material _43_Base_Color.dds"
    ,
    "normal": "data/textures/arenas/balcon_arena_prefab/material_ventanasbalconarena/Material _43_Normal_OpenGL.dds"
    ,
    "metallic": "data/textures/arenas/balcon_arena_prefab/material_ventanasbalconarena/Material _43_Metallic.dds"
    ,
    "roughness": "data/textures/arenas/balcon_arena_prefab/material_ventanasbalconarena/Material _43_Roughness.dds"
    ,
    "emissive": "data/textures/null_emissive.dds"
    ,
    "height": "data/textures/null_height.dds"
    ,
    "ao": "data/textures/arenas/balcon_arena_prefab/material_ventanasbalconarena/Material _43_Mixed_AO.dds"
  }
  ,
  "casts_shadows": true
  ,
  "shadows_material": "data/materials/shadows.material"
}
