[
	{
		"entity" : {
			"transform" : {
				"pos" : "0 0 0"
			},		
			"name" : "CinematicScriptExitSanctuary",
			"script" : {
				"path" : "data/scripts/game/level/IntroSanctuary/Cinematic_SanctuaryExit.lua"
			}
		}
	}
]