[
	{
		"entity" : {
			"transform" : {
				"pos" : "0 0 0"
			},		
			"name" : "CinematicScriptIntroSanctuary",
			"script" : {
				"path" : "data/scripts/game/level/FirstImmortalEncounter/Cinematic_Immortal.lua"
			}
		}
	}
]