{
  "textures":
  {
    "albedo": "data/textures/props/marketbox_blue/material_boxmarket_blue/box_market_01_Base_Color.dds"
    ,
    "normal": "data/textures/props/marketbox_blue/material_boxmarket_blue/box_market_01_Normal.dds"
    ,
    "metallic": "data/textures/null_metallic.dds"
    ,
    "roughness": "data/textures/null_roughness.dds"
    ,
    "emissive": "data/textures/null_emissive.dds"
    ,
    "height": "data/textures/null_height.dds"
    ,
    "ao": "data/textures/props/marketbox_blue/material_boxmarket_blue/box_market_01_AO.dds"
  }
  ,
  "casts_shadows": true
  ,
  "shadows_material": "data/materials/shadows.material"
}
