{
  "technique": "objs_culled_by_gpu.tech"
  ,
  "textures":
  {
    "albedo": "data/textures/props/umbrella_2/material_Material_Paragua_2/paraguas_2_Base_Color.dds"
    ,
    "normal": "data/textures/props/umbrella_2/material_Material_Paragua_2/paraguas_2_Normal_OpenGL.dds"
    ,
    "metallic": "data/textures/props/umbrella_2/material_Material_Paragua_2/paraguas_2_Metallic.dds"
    ,
    "roughness": "data/textures/props/umbrella_2/material_Material_Paragua_2/paraguas_2_Roughness.dds"
    ,
    "emissive": "data/textures/null_emissive.dds"
    ,
    "height": "data/textures/null_height.dds"
    ,
    "ao": "data/textures/null_ao.dds"
  }
  ,
  "casts_shadows": true
  ,
  "shadows_material": "data/materials/shadows_instanced_gpu.material"
}
