{
  "textures":
  {
    "albedo": "data/textures/props/tenderete_tres_textuno_prefab/material_tenderetetrestextuno/Material _685_Base_Color.dds"
    ,
    "normal": "data/textures/props/tenderete_tres_textuno_prefab/material_tenderetetrestextuno/Material _685_Normal_OpenGL.dds"
    ,
    "metallic": "data/textures/props/tenderete_tres_textuno_prefab/material_tenderetetrestextuno/Material _685_Metallic.dds"
    ,
    "roughness": "data/textures/props/tenderete_tres_textuno_prefab/material_tenderetetrestextuno/Material _685_Roughness.dds"
    ,
    "emissive": "data/textures/null_emissive.dds"
    ,
    "height": "data/textures/null_height.dds"
    ,
    "ao": "data/textures/props/tenderete_tres_textuno_prefab/material_tenderetetrestextuno/Material _685_Mixed_AO.dds"
  },
  "technique" : "objs_no_culling.tech",
  "casts_shadows": true,
  "shadows_material": "data/materials/shadows_no_culling.material"
}
