{
  "technique": "objs_culled_by_gpu.tech"
  ,
  "textures":
  {
    "albedo": "data/textures/arenas/cruz_prefab_buena/material_cruz/Material _25_Base_Color.dds"
    ,
    "normal": "data/textures/arenas/cruz_prefab_buena/material_cruz/Material _25_Normal_OpenGL.dds"
    ,
    "metallic": "data/textures/arenas/cruz_prefab_buena/material_cruz/Material _25_Metallic.dds"
    ,
    "roughness": "data/textures/arenas/cruz_prefab_buena/material_cruz/Material _25_Roughness.dds"
    ,
    "emissive": "data/textures/null_emissive.dds"
    ,
    "height": "data/textures/null_height.dds"
    ,
    "ao": "data/textures/arenas/cruz_prefab_buena/material_cruz/Material _25_Mixed_AO.dds"
  }
  ,
  "casts_shadows": true
  ,
  "shadows_material": "data/materials/shadows_instanced_gpu.material"
}
