[
  {
    "entity":
    {
      "name": "PosterIndia2"
      ,
      "transform":
      {
        "pos": "0.0 0.0 0.0",
		"scale" : "1.0 1.0 0.1"
      }
      ,
      "render":
      {
        "mesh": "data/meshes/UnitSolidCube.mesh",
        "color": "0.0 0.0 0.0 1.0",
        "can_be_instanced": true,
        "materials":
        [
          "data/materials/decals/static/posterIndia2.material"
        ]
      }
	  ,
      "abs_aabb":
      {
      }
    }
  }
]
