{
  "textures":
  {
    "albedo": "data/textures/307.dds"
    ,
    "normal": "data/textures/null_normal.dds"
    ,
    "emissive": "data/textures/null_height.dds"
    ,
    "height": "data/textures/null_height.dds"
  }
}
