{
  "technique": "objs_mix.tech",
  "type": "mix",
  "textures":
  { },
  "mats":[
    "data/materials/mix_grass.material",
    "data/materials/mix_sand.material",
    "data/materials/mix_stones.material"
  ],
  "mix_blend_weights" : "data/textures/mix/mixing_blend.dds"
}
