{
  "textures":
  {
    "albedo": "data/textures/mix/Pebbles_01_COLOR.dds",
    "normal": "data/textures/mix/Pebbles_01_NRM.dds",
    "metallic": "data/textures/black.dds",
    "roughness": "data/textures/white.dds"
  }
}
