{
  "technique" : "combine_textures_blend.tech",
  "category" : "transparent",
  "textures":
  {
    "albedo": "data/textures/muzzle_flash.dds"
    ,
    "normal": "data/textures/null_normal.dds"
    ,
    "emissive": "data/textures/null_height.dds"
    ,
    "height": "data/textures/null_height.dds"
  }
  ,
  "casts_shadows": false
}
