{
  "technique": "perception_objs.tech",
  "casts_shadows": true,
  "textures":
  {
    "albedo": "data/textures/plain.dds",
    "normal": "data/textures/null_normal.dds"
  },
  "ctes" : {
	"extra_constant" : {
		"name" : "Perception",
		"data" : {
			"PerceptionMask" : "perception"
		}
	}
  },
  "category" : "perception"
}