{
  "technique": "shadows_alpha.tech"
  ,
  "textures":
  {
	  "albedo"     : "data/textures/five_star.dds",
	  "emissive" : "data/textures/five_star.dds"
  }
  ,
  "category": "shadows"
  ,
  "casts_shadows": false
}
