{
  "technique" : "vanish_objs.tech",
  "textures":
  {
    "albedo": "data/textures/weapons/shotgunGrenade/material_shotgunGrenade_mat1/main_mat_Base_Color.dds"
    ,
    "normal": "data/textures/weapons/shotgunGrenade/material_shotgunGrenade_mat1/main_mat_Normal_OpenGL.dds"
    ,
    "metallic": "data/textures/weapons/shotgunGrenade/material_shotgunGrenade_mat1/main_mat_Metallic.dds"
    ,
    "roughness": "data/textures/null_roughness.dds"
    ,
    "emissive": "data/textures/null_emissive.dds"
    ,
    "height": "data/textures/null_height.dds"
    ,
    "ao": "data/textures/null_ao.dds"
  }
  ,
  "casts_shadows": true
  ,
  "shadows_material": "data/materials/shadows.material"
}
