{
	"sizes" : {
		"default" : 4096,
		"transform" : 4096,
		"camera" : 200,
		"camera_flyover_controller" : 2,
		"comp_camera_blender" : 2,
		"comp_player_camera_controller" : 2,
		"player_camera_post_process_effects" : 2,
		"camera_manager" : 3,
		"rifle" : 2,
		"smg" : 3,
		"weapon_manager" : 2,
		"scythe" : 2,
		"scythe_player" : 2,
		"comp_mouse_manager_debug" : 3,
		"input_player" : 2,
		"ammo_ui_controller" : 2,
		"crosshair_ui_controller" : 2,
		"win_message_ui" : 2,
		"lose_message_ui" : 2,
		"movement_demon_controller" : 8,
		"perception" : 2
	},
	"init_order" : {
		"entity" : 100,
		"transform" : 90,
		"collider" : 85,
		"camera" : 50,
		"comp_camera_blender" : 49
	},
	"multithread": [
		"armature"
	],
	"update": [
		"comp_mouse_manager_debug",
		"comp_player_camera_controller",
		"camera_flyover_controller",
		"camera_lookat",
		"camera_curve_controller",
		"trans_curve_controller",

		"health_component",
		"weapon_manager",
		"status_effects",
		"input_player_movement",
		"input_player_combat",
		
		"totem",
		
		"player_character_controller",
		"character_controller",
		"movement_demon_controller",
		"bullet_controller",
		"rifle",
		"shotgun_grenade",
		"rifle_grenade",
		"enemy_ranged_projectile",

		"navmesh",
		"pathfinding_agent",
		
		"scythe_player",
		"perception",
		
		"enemyMelee_animator",
		"enemyRanged_animator",
		"enemyInmortal_animator",
		"player_animator",
		"player_menu_animator",
		
		"armature",
		"skeleton_lookats",
		"skeleton_iks",
		"bone_tracker",
		"hierarchy",
		"ragdoll",
		"hitboxes",
		"feet_controller",
		"scythe_controller",
		
		"comp_shaker",
		"camera_tracker",
		"camera",
		"camera_manager",
		
		"comp_camera_blender",
		"render_blending",

		"sensor",
		"local_aabb",	
		
		"ammo_ui_controller",
		"interactor",
		"special_ammo_ui_controller",
		"reload_ui_controller",
		"win_message_ui",
		"lose_message_ui",

		"hints",

		"arena",
		"spawn",
		"door",
		"visual_damage_feedback",
		"floating_damage",
		"ai_bt_enemy_ranged",
		"ai_bt_enemy_melee",
		"ai_bt_enemy_immortal",
		"ai_bt_demon",
		"melee_tutorial_crouch",
		"squad_boss",
		"script",
		"compute",
		"material_buffers",
		"trail_render",
		"line_render",
		"fade_point_light",
		"checkpoint"
	],
	"render_debug" : 
	[
		"collider"
	]
}