{
  "imgui-marked-modules" : [
    "entities",
    "render",
	"instancing"
  ],
  "imgui-show-modules-as-windows" : [
  ],
  "theme" : "Cherry",


  "This is a comment": {
    "Available Themes": 
    [
      "Dark",
      "Light",
      "Cherry",
      "RayTeak (Is recommended to change the font too)"
    ]
  }

}
