{
  "technique": "perception_objs.tech",
  "textures":
  {
    "albedo": "data/textures/props/door_coliseo/material_Material_door_coliseo/door_coliseo_Base_Color.dds"
    ,
    "normal": "data/textures/props/door_coliseo/material_Material_door_coliseo/door_coliseo_Normal_OpenGL.dds"
    ,
    "metallic": "data/textures/props/door_coliseo/material_Material_door_coliseo/door_coliseo_Metallic.dds"
    ,
    "roughness": "data/textures/props/door_coliseo/material_Material_door_coliseo/door_coliseo_Roughness.dds"
    ,
    "emissive": "data/textures/null_emissive.dds"
    ,
    "height": "data/textures/null_height.dds"
    ,
    "ao": "data/textures/null_ao.dds"
  }
  ,
  "casts_shadows": true
  ,
  "shadows_material": "data/materials/shadows.material"
  ,
  "ctes" : {
	"extra_constant" : {
		"name" : "Perception",
		"data" : {
			"PerceptionMask" : "perceptionobj"
		}
	}
  },
  "category" : "perception"
}
