{
  "technique": "perception_objs.tech",
  "textures":
  {
    "albedo": "data/textures/props/wooddoor/material_wooddoor/woodendoor_Base_Color.dds"
    ,
    "normal": "data/textures/props/wooddoor/material_wooddoor/woodendoor_Normal.dds"
    ,
    "metallic": "data/textures/null_metallic.dds"
    ,
    "roughness": "data/textures/props/wooddoor/material_wooddoor/woodendoor_Roughness.dds"
    ,
    "emissive": "data/textures/null_emissive.dds"
    ,
    "height": "data/textures/null_height.dds"
    ,
    "ao": "data/textures/null_ao.dds"
  }
  ,
  "casts_shadows": true
  ,
  "shadows_material": "data/materials/shadows.material",
  "ctes" : {
	"extra_constant" : {
		"name" : "Perception",
		"data" : {
			"PerceptionMask" : "perceptionobj"
		}
	}
  },
  "category" : "perception"
}
