{
  "technique": "perception_skinned_xray.tech",
  "casts_shadows": false,
  "textures":
  {
    "albedo": "data/textures/enemyRanged/enemyRanged_albedo.dds"
  },
  "ctes" : {
	"extra_constant" : {
		"name" : "Perception",
		"data" : {
			"PerceptionMask" : "perception_enemies"
		}
	}
  },
  "category" : "xray"
}