{
  "textures":
  {
    "albedo": "data/textures/props/ExplosiveBarrel/material_Material_ExplosiveBarrel/Explosive Barrel_Base_Color.dds"
    ,
    "normal": "data/textures/props/ExplosiveBarrel/material_Material_ExplosiveBarrel/Explosive Barrel_Normal.dds"
    ,
    "metallic": "data/textures/props/ExplosiveBarrel/material_Material_ExplosiveBarrel/Explosive Barrel_Metallic.dds"
    ,
    "roughness": "data/textures/props/ExplosiveBarrel/material_Material_ExplosiveBarrel/Explosive Barrel_Roughness.dds"
    ,
    "emissive": "data/textures/null_emissive.dds"
    ,
    "height": "data/textures/null_height.dds"
    ,
    "ao": "data/textures/props/ExplosiveBarrel/material_Material_ExplosiveBarrel/Explosive Barrel_Mixed_AO.dds"
  }
  ,
  "casts_shadows": true
  ,
  "shadows_material": "data/materials/shadows.material"
}
