{
    "IsLooping": false,
    "animation_time": 0.5,
    "color_nodes": [
        {
            "time": 0.0,
            "value": "1 1 1 1"
        },
        {
            "time": 0.5,
            "value": "1 1 1 0"
        }
    ],
    "name": "BlackScreenFadeOut",
    "scale_nodes": [],
    "special_nodes": [],
    "transform_nodes": [],
    "color_interpolator": "cubic_in"
}
