{
    "IsLooping": false,
    "animation_time": 0.75,
    "color_nodes": [
        {
            "time": 0.0,
            "value": "1 1 1 1"
        },
        {
            "time": 0.01,
            "value": "1 1 1 0"
        },
        {
            "time": 0.75,
            "value": "1 1 1 1"
        }],
    "name": "HintFadeIn",
    "scale_nodes": [],
    "special_nodes": [],
    "transform_nodes": [
        {
            "time": 0.0,
            "value": "0 0"
        },
        {
            "time": 0.75,
            "value": "-507 0"
        }
    ],
    "transform_interpolator": "cubic_in",
    "color_interpolator": "cubic_in"
}
