[
  {
    "entity":
    {
      "name": "casa_dos_textdos"
      ,
      "transform":
      {
        "pos": "0.0 0.0 0.0"
        ,
        "rotation": "0.0 -1.50996e-07 0.0 -1.0"
      }
      ,
      "collider":
      {
        "shapes":
        [
          {
            "shape": "trimesh"
            ,
            "collision_mesh": "data/meshes/houses/casa_dos_prefab_dos/collider_casa_dos_textdos.col_mesh"
            ,
            "group": "scenario"
          }
        ]
      }
      ,
      "render":
      {
        "mesh": "data/meshes/houses/casa_dos_prefab_dos/casa_dos_textdos.mesh"
        ,
        "color": "0.0 0.0 0.0 1.0"
        ,
        "can_be_instanced": true
        ,
        "materials":
        [
          "data/materials/houses/casa_dos_prefab_dos/material_casados_dos/material_casados_dos.material"
        ]
      }
      ,
      "abs_aabb":
      {
      }
    }
  }
]
