[
  {
    "entity":
    {
      "name": "casa_uno"
      ,
      "transform":
      {
        "pos": "0.0 0.0 -2.45534e-07"
        ,
        "rotation": "0.0 0.0 0.0 -1.0"
      }
      ,
      "collider":
      {
        "shapes":
        [
          {
            "shape": "trimesh"
            ,
            "collision_mesh": "data/meshes/houses/casa_uno_prefab/collider_casa_uno.col_mesh"
            ,
            "group": "scenario"
          }
        ]
      }
      ,
      "render":
      {
        "mesh": "data/meshes/houses/casa_uno_prefab/casa_uno.mesh"
        ,
        "color": "0.0 0.0 0.0 1.0"
        ,
        "can_be_instanced": true
        ,
        "materials":
        [
          "data/materials/houses/casa_uno_prefab/material_casauno_paredes/material_casauno_paredes.material"
          ,
          "data/materials/houses/casa_uno_prefab/material_casauno_ventana/material_casauno_ventana.material"
        ]
      }
      ,
      "abs_aabb":
      {
      }
    }
  }
]
