[
  {
    "entity":
    {
      "name": "casa_tres_textuno"
      ,
      "transform":
      {
        "pos": "0.0 0.0 0.0"
        ,
        "rotation": "0.0 -0.707107 0.0 -0.707107"
      }
      ,
      "collider":
      {
        "shapes":
        [
          {
            "shape": "trimesh"
            ,
            "collision_mesh": "data/meshes/houses/casa_tres_textuno/collider_casa_tres_textuno.col_mesh"
            ,
            "group": "scenario"
          }
        ]
      }
      ,
      "render":
      {
        "mesh": "data/meshes/houses/casa_tres_textuno/casa_tres_textuno.mesh"
        ,
        "color": "0.0 0.0 0.0 1.0"
        ,
        "can_be_instanced": true
        ,
        "materials":
        [
          "data/materials/houses/casa_tres_textuno/material_casatres_uno/material_casatres_uno.material"
        ]
      }
      ,
      "abs_aabb":
      {
      }
    }
  }
]
