[
  {
    "entity":
    {
      "name": "casa_siete"
      ,
      "transform":
      {
        "pos": "0.0 0.0 0.0"
        ,
        "rotation": "0.0 0.0 0.0 -1.0"
      }
      ,
      "collider":
      {
        "shapes":
        [
          {
            "shape": "trimesh"
            ,
            "collision_mesh": "data/meshes/houses/casa_siete_prefab/collider_casa_siete.col_mesh"
            ,
            "group": "scenario"
          }
        ]
      }
      ,
      "render":
      {
        "mesh": "data/meshes/houses/casa_siete_prefab/casa_siete.mesh"
        ,
        "color": "0.0 0.0 0.0 1.0"
        ,
        "can_be_instanced": true
        ,
        "materials":
        [
          "data/materials/houses/casa_siete_prefab/material_sietecasa_pared_dos/material_sietecasa_pared_dos.material"
          ,
          "data/materials/houses/casa_siete_prefab/material_sietecasa_ventana_dos/material_sietecasa_ventana_dos.material"
        ]
      }
      ,
      "abs_aabb":
      {
      }
    }
  }
]
