[
  {
    "entity":
    {
      "name": "suelocasadepaso_uno"
      ,
      "transform":
      {
        "pos": "0.0 0.0 0.0"
        ,
        "rotation": "0.0 0.0 0.0 -1.0"
      }
      ,
      "collider":
      {
        "shapes":
        [
          {
            "shape": "trimesh"
            ,
            "collision_mesh": "data/meshes/houses/suelo_casadepaso_prefab_textuno/suelocasadepaso_uno_collider.col_mesh"
            ,
            "group": "scenario"
          }
        ]
      }
      ,
      "render":
      {
        "mesh": "data/meshes/houses/suelo_casadepaso_prefab_textuno/suelocasadepaso_uno.mesh"
        ,
        "color": "0.690196 0.101961 0.101961 1.0"
        ,
        "can_be_instanced": true
        ,
        "materials":
        [
          "data/materials/houses/suelo_casadepaso_prefab_textuno/material_suelocasadepasotextuno/material_suelocasadepasotextuno.material"
        ]
      }
      ,
      "abs_aabb":
      {
      }
    }
  }
]
