{
  "textures":
  {
    "albedo": "data/textures/houses/casa_de_paso_prefab/material_casa_de_paso_uno/casa_de_paso_Base_Color.dds"
    ,
    "normal": "data/textures/houses/casa_de_paso_prefab/material_casa_de_paso_uno/casa_de_paso_Normal_OpenGL.dds"
    ,
    "metallic": "data/textures/houses/casa_de_paso_prefab/material_casa_de_paso_uno/casa_de_paso_Metallic.dds"
    ,
    "roughness": "data/textures/houses/casa_de_paso_prefab/material_casa_de_paso_uno/casa_de_paso_Roughness.dds"
    ,
    "emissive": "data/textures/null_emissive.dds"
    ,
    "height": "data/textures/null_height.dds"
    ,
    "ao": "data/textures/houses/casa_de_paso_prefab/material_casa_de_paso_uno/casa_de_paso_Mixed_AO.dds"
  }
  ,
  "casts_shadows": true
  ,
  "shadows_material": "data/materials/shadows.material"
}
