[
  {
    "entity": {
      "name": "EnemyMeleeTutorialCrouch",
      "transform": {
        "pos": "0 0 0"
      },
      "tags": [
        "enemy",
        "enemyMelee",
        "perception",
        "tutorial"
      ],
      "render": {
        "color": "2.498 2.537255 0.1686 1",
        "meshes": [
          {
            "mesh": "data/skeletons/enemyMelee/enemyMelee.mesh",
            "material": "data/materials/enemyMelee/enemyMelee.material"
          },
          {
            "mesh": "data/skeletons/enemyMelee/enemyMelee.mesh",
            "material": "data/materials/enemyMelee/enemyMelee_perception.material",
            "state": 1,
            "state_id": "perception",
            "visible": false
          },
          {
            "mesh": "data/skeletons/enemyMelee/enemyMelee.mesh",
            "material": "data/materials/enemyMelee/enemyMelee_blended.material",
            "state": 2,
            "state_id": "blended",
            "visible": false
          },
          {
            "mesh": "data/skeletons/enemyMelee/enemyMelee.mesh",
            "material": "data/materials/enemyMelee/melee_buffed.material",
            "state": 3,
            "state_id": "buffed",
            "visible": false
          },
          {
            "mesh": "data/skeletons/enemyMelee/enemyMelee.mesh",
            "material": "data/materials/enemyMelee/yellow_skin.material",
            "state": 4,
            "visible": false
          },
          {
            "mesh": "data/skeletons/enemyMelee/enemyMelee.mesh",
            "material": "data/materials/enemyMelee/enemyMelee_perception_xray.material",
            "state": 5,
            "state_id": "xray",
            "visible": false
          },
          {
            "mesh": "data/skeletons/enemyMelee/enemyMelee.mesh",
            "material": "data/materials/enemyMelee/enemyMelee_vanish.material",
            "state": 6,
            "state_id": "vanish",
            "visible": false
          }
        ]
      },
      "material_buffers": {
        "buffers": [
          {
            "buffer_name": "vanish",
            "activate_on_mesh_state": 6,
            "buffer_data": {
              "VanishInnerBorderColor": "0.2062745098 0.01568627451 0.3764705882 1.0",
              "VanishInnerBorderSize": 0.05,
              "VanishOutterBorderColor": "1.0 0.03921568627, 0.468627451 1.0",
              "VanishOutterBorderSize": 0.02,
              "VanishTotalTime": 2.8
            }
          },
          {
            "buffer_name": "blast",
            "activate_on_mesh_state": 7,
            "buffer_data": {
              "BlastScale": 12,
              "BlastThickness": 0.1,
              "BlastIntensity": 8,
              "BlastSpeed": 5
            }
          }
        ]
      },
      "armature": {
        "src": "data/skeletons/enemyMelee/enemyMeleeTutorialCrouch.skeleton"
      },
      "melee_tutorial_crouch":{
        "death_time": 2.5
      },
      "enemyMelee_animator_tutorial_crouch": {
        "src": "data/fsm/enemyMelee_tutorial_crouch.fsm"
      },
      "ragdoll": {
        "initial_force": 5
      },
      "collider": {
        "shape": "capsule",
        "controller": true,
        "radius": 0.25,
        "height": 1.65,
        "group": "enemy",
        "mask": [
          "scenario",
          "player",
          "enemy",
          "trigger"
        ]
      },
      "floating_damage": {
        "text_color": "1 1 1 1",
        "outline_color": "0 0 0 1",
        "text_color_critical": "0.95 0.75 0 1",
        "outline_color_critical": "0 0 0 1",
        "offset": "50 0",
        "alive_time": 0.2
      },
      "health_component": {
        "max_health": 20,
        "current_health": 20,
        "death_sound_event": "event:/Enemies/Melee/MeleeDeath"
      },
      "local_aabb": {
        "center": "0 1 0",
        "half_size": "1 2 1"
      },
      "abs_aabb": {}
    }
  }
]