[
	{
		"entity": {
		  "name": "Totem",
		  "transform": {
			"pos": "0.0 0.37 0.0",
			"rotation": "0.0 0.0 0.0 -1.0"
		  },
		  "tags": [
			"totem",
			"trigger",
			"perception"
		  ],
		  "collider":
		  {
			"shapes":
			[
			  {
				"shape": "trimesh"
				,
				"collision_mesh": "data/meshes/props/Totem/collider_totem.col_mesh"
				,
				"group": "scenario"
			  },
			  {
				"shape": "sphere",
				"radius": 6.0,
				"group": "trigger",
				"trigger": true
			   }
			]
		  }
		  ,
		  "render":
		  {
			"color": "1.0 0.0 0.0 1.0",
			"can_be_instanced": false,
			"meshes": [
				{
					"mesh": "data/meshes/props/Totem/totem.mesh",
					"material": "data/materials/props/Totem/material_Material_Totem/material_Material_Totem.material"
				},
				{
					"mesh": "data/meshes/props/Totem/totem.mesh",
					"material": "data/materials/props/Totem/material_Material_Totem/material_Material_Totem_Perception.material",
					"state": 1,
					"state_id" : "perception",
					"visible": false
				},
				{
					"mesh": "data/meshes/props/Totem/totem.mesh",
					"material": "data/materials/props/Totem/material_Material_Totem/material_Material_Totem_Blended.material",
					"state": 2,
					"state_id" : "blended",
					"visible": false
				},
				{
					"mesh": "data/meshes/props/Totem/totem.mesh",
					"material" : "data/materials/props/Totem/material_Material_Totem/material_Material_Totem_Perception.material",
					"state": 3,
					"state_id" : "xray",
					"visible": false
				},
				{
					"mesh": "data/meshes/props/Totem/totem.mesh",
					"material": "data/materials/props/Totem/material_Material_Totem/material_Material_Totem_Vanish.material",
					"state": 4,
					"state_id" : "vanish",
					"visible": false
				}
			]
		  },
		  "render_blending" : {},
		  "material_buffers" : {
			"buffers" : [
				{
					"buffer_name": "vanish",
					"activate_on_mesh_state" : 4,
					"buffer_data": {
					  "VanishInnerBorderColor": "2.0 0.69 0.37255 1.0",
					  "VanishInnerBorderSize": 0.220,
					  "VanishOutterBorderColor": "2.0 0.4 0.1804 1.0",
					  "VanishOutterBorderSize": 0.190,
					  "VanishTotalTime": 4.0,
					  "VanishNoiseScale" : 4.0,
					  "VanishAddedIntensity" : 10.0
					}
				}
			]
		  },
		  "floating_damage": {
			"text_color": "1 1 1 1",
			"outline_color": "0 0 0 1",
			"text_color_critical": "0.75 0 0 1",
			"outline_color_critical": "0 0 0 1",
			"offset": "0 -175"
		  },
		  "local_aabb": {
			"center": "0 1.35 0",
			"half_size": "1 1.35 1"
		  },
		  "abs_aabb": {},
		  "totem": {
			"armour": 1.05,
			"regenerationPerSecond": 1.05,
			"damage": 1.05,
			"bulletSpeed": 1.05,
			"decisionMakingSpeed": 1.05,
			"decisionMakingIntelligence": 1.05,
			"detectionDistance": 1.05,
			"spawnTranslationInterpolator": "quad_out",
			"spawnRotationInterpolator": "quad_out",
			"hiddenYLevel": 2.87,
			"timeToShow": 1.5,
			"dustParticles": "data/particles/totem_dust.particles",
			"flintParticles": "data/particles/totem_flint.particles"
		  },
		  "health_component": {
			"max_health": 300,
			"current_health": 300
		  },
		  "abs_aabb" : {},
		  "particles" : {
			"file" : "data/particles/totem_aura.particles",
			"active" : true,
			"can_emit" : false
		  }
		}
	},
	{
		"entity":
		{
		  "name": "TrampaSigil"
		  ,
		  "transform": {
			"pos": "0.0 0.360 0.0",
			"angles": "90 0.0 0.0",
			"scale" : "12.0 12.0 0.05"
		  }
		  ,
		  "render":
		  {
			"mesh": "data/meshes/UnitSolidCube.mesh",
			"color": "0.0 0.0 0.0 1.0",
			"can_be_instanced": false,
			"materials":
			[
			  "data/materials/decals/static/TotemDecal.material"
			]
		  },
		  "abs_aabb":
		  {
			"half_size" : "6.0 6.0 6.0"
		  }
		}
	}
]