[
  {
    "entity":
    {
      "name": "arbol"
      ,
      "transform":
      {
        "pos": "0.0 0.0 0.0"
        ,
        "rotation": "0.0 -0.707107 0.0 -0.707107"
      }
      ,
      "collider":
      {
        "shapes":
        [
          {
            "shape": "trimesh"
            ,
            "collision_mesh": "data/meshes/props/arbol/collider_arbol.col_mesh"
          }
        ]
      }
      ,
      "render":
      {
        "mesh": "data/meshes/props/arbol/arbol.mesh"
        ,
        "color": "0.14902 0.0823529 0.027451 1.0"
        ,
        "can_be_instanced": true
        ,
        "materials":
        [
          "data/materials/props/arbol/material_arbol/material_arbol.material"
        ]
      }
      ,
	  "tags" : ["wood"],
      "abs_aabb":
      {
      }
    }
  }
]
