[
  {
    "entity":
    {
      "name": "blanket_Orange"
      ,
      "transform":
      {
        "pos": "0.0 0.0 0.0"
        ,
        "rotation": "0.0 0.0 0.0 -1.0"
      }
      ,
      "collider":
      {
        "shapes":
        [
          {
            "shape": "box"
            ,
            "half_size": "4.93738 0.0124366 2.51844"
            ,
            "offset":
            {
              "pos": "0.0 0.0124366 0.0"
            }
            ,
            "group": "scenario"
          }
        ]
      }
      ,
      "render":
      {
        "mesh": "data/meshes/props/blanket_Orange/blanket_Orange.mesh"
        ,
        "color": "0.0235294 0.529412 0.227451 1.0"
        ,
        "can_be_instanced": true
        ,
        "materials":
        [
          "data/materials/props/blanket_Orange/material_Material_Blanket_Orange/material_Material_Blanket_Orange.material"
        ]
      }
      ,
      "abs_aabb":
      {
      }
    }
  }
]
