[
  {
    "entity":
    {
      "name": "cigar_cuban"
      ,
      "transform":
      {
        "pos": "0.0 0.0 0.0"
        ,
        "rotation": "0.0 0.0 0.0 -1.0"
      }
      ,
      "render":
      {
        "mesh": "data/meshes/props/cigar cuban/cigar_cuban.mesh"
        ,
        "color": "0.101961 0.694118 0.101961 1.0"
        ,
        "can_be_instanced": true
        ,
        "materials":
        [
          "data/materials/props/cigar cuban/material_material_cigar_cuban/material_material_cigar_cuban.material"
        ]
      }
      ,
      "abs_aabb":
      {
      }
    }
  }
]
