[
  {
    "entity": {
      "name": "DoorCasadepaso",
      "transform": {
        "pos": "0.0 0.0 0.0",
        "rotation": "0.0 0.0 0.0 -1.0"
      },
      "door": {
        "RightDoorName": "DoorCasadepasoRight",
        "LeftDoorName": "DoorCasadepasoLeft",
        "open_door_sound_event": "event:/Effects/OpenDoor",
        "close_door_sound_event": "event:/Effects/CloseDoor"
      },
      "abs_aabb": {},
      "local_aabb": {}
    }
  },
  {
    "entity": {
      "name": "DoorCasadepasoLeft",
      "transform": {
        "pos": "1.155 0.0 0.0",
        "rotation": "0.0 0.0 0.0 -1.0"
      },
      "collider": {
        "dynamic": true,
        "lock_flags": {
          "linear": "xyz",
          "angular": "xz"
        },
        "shapes": [
          {
            "shape": "box",
            "half_size": "0.576625 1.8688 0.113496",
            "offset": {
              "pos": "-0.576625 1.8688 0.0"
            },
            "group": "DynamicScenario",
            "mask": [
              "player",
              "enemy",
              "ragdoll",
              "DynamicScenario",
              "pickUps",
              "bullets",
              "particles"
            ]
          }
        ]
      },
      "render": {
        "color": "0.0235294 0.529412 0.443137 1.0",
        "can_be_instanced": false,
		"meshes": [
          {
			"mesh": "data/meshes/props/door_casadepaso/door_casadepaso.mesh",
            "material":           "data/materials/props/door_casadepaso/material_Material_door_casadepaso/material_Material_door_casadepaso.material"
          },
          {
			"mesh": "data/meshes/props/door_casadepaso/door_casadepaso.mesh",
            "material":           "data/materials/props/door_casadepaso/material_Material_door_casadepaso/material_Material_door_casadepaso_perception.material",
            "state": 1,
			"state_id" : "perception",
            "visible": false
          }
        ]
      },
	  "rigid_body" : {
		"mass" : 0.0,
		"inertia" : "0.0 0.0 0.0"
	  },
	  "tags" : ["wood", "perception"],
      "abs_aabb": {},
      "local_aabb": {}
    }
  },
  {
    "entity": {
      "name": "DoorCasadepasoRight",
      "transform": {
        "pos": "-1.155 0.0 0.0",
        "angles": "0 180 0"
      },
      "collider": {
        "dynamic": true,
        "lock_flags": {
          "linear": "xyz",
          "angular": "xz"
        },
        "shapes": [
          {
            "shape": "box",
            "half_size": "0.576625 1.8688 0.113496",
            "offset": {
              "pos": "-0.576625 1.8688 0.0"
            },
            "group": "DynamicScenario",
            "mask": [
              "player",
              "enemy",
              "ragdoll",
              "DynamicScenario",
              "pickUps",
              "bullets",
              "particles"
            ]
          }
        ]
      },
      "render": {
        "color": "0.0235294 0.529412 0.443137 1.0",
        "can_be_instanced": false,
		"meshes": [
          {
			"mesh": "data/meshes/props/door_casadepaso/door_casadepaso.mesh",
            "material":           "data/materials/props/door_casadepaso/material_Material_door_casadepaso/material_Material_door_casadepaso.material"
          },
          {
			"mesh": "data/meshes/props/door_casadepaso/door_casadepaso.mesh",
            "material":           "data/materials/props/door_casadepaso/material_Material_door_casadepaso/material_Material_door_casadepaso_perception.material",
            "state": 1,
			"state_id" : "perception",
            "visible": false
          }
        ]
      },
	  "rigid_body" : {
		"mass" : 0.0,
		"inertia" : "0.0 0.0 0.0"
	  },
	  "tags" : ["wood", "perception"],
      "abs_aabb": {},
      "local_aabb": {}
    }
  }
]