[
  {
    "entity":
    {
      "name": "farolillo_indio"
      ,
      "transform":
      {
        "pos": "-0.190603 -0.0986176 0.0"
        ,
        "rotation": "0.0 0.0 0.0 -1.0"
      }
      ,
      "collider":
      {
        "shapes":
        [
          {
            "shape": "box"
            ,
            "half_size": "0.2 0.39 0.1"
            ,
            "offset":
            {
              "pos": "0.2 -0.275 0.0"
            }
            ,
            "group": "low_poly"
          }
        ]
      }
      ,
      "render":
      {
        "mesh": "data/meshes/props/farolillo_indio_prefab_bueno/farolillo_indio.mesh"
        ,
        "color": "0.0 0.0 0.0 1.0"
        ,
        "can_be_instanced": true
        ,
        "materials":
        [
          "data/materials/props/farolillo_indio_prefab_bueno/material_farolilloindio/material_farolilloindio.material"
        ]
      }
      ,
      "abs_aabb":
      {
      }
    }
  }
]
