[
  {
    "entity":
    {
      "name": "MarketShed"
      ,
      "transform":
      {
        "pos": "0.0 0.0 0.0"
        ,
        "rotation": "0.0 0.0 0.0 -1.0"
      }
      ,
      "collider":
      {
        "shapes":
        [
          {
            "shape": "box"
            ,
            "half_size": "1.57401 1.23536 1.57163"
            ,
            "offset":
            {
              "pos": "0.0 1.23536 0.0"
            }
            ,
            "group": "scenario"
          }
        ]
      }
      ,
      "render":
      {
        "mesh": "data/meshes/props/MarketShed/MarketShed.mesh"
        ,
        "color": "0.345098 0.345098 0.882353 1.0"
        ,
        "can_be_instanced": true
        ,
        "materials":
        [
          "data/materials/props/MarketShed/material_Material_MarketShed/material_Material_MarketShed.material"
        ]
      }
      ,
      "abs_aabb":
      {
      }
    }
  }
]
