[
  {
    "entity":
    {
      "name": "marketbox_orange"
      ,
      "transform":
      {
        "pos": "0.0 0.0 0.0"
        ,
        "rotation": "0.0 0.0 0.0 -1.0"
      }
      ,
      "collider":
      {
        "shapes":
        [
          {
            "shape": "trimesh"
            ,
            "collision_mesh": "data/meshes/props/marketbox_orange/collider_marketbox_orange.col_mesh"
          }
        ]
      }
      ,
      "render":
      {
        "mesh": "data/meshes/props/marketbox_orange/marketbox_orange.mesh"
        ,
        "color": "0.694118 0.105882 0.345098 1.0"
        ,
        "can_be_instanced": true
        ,
        "materials":
        [
          "data/materials/props/marketbox_orange/material_boxmarket_orange/material_boxmarket_orange.material"
        ]
      }
      ,
      "abs_aabb":
      {
      }
    }
  }
]
