[
  {
    "entity":
    {
      "name": "sign_cocacola"
      ,
      "transform":
      {
        "pos": "0.0 0.0 0.0"
        ,
        "rotation": "0.0 -1.0 0.0 0.0"
      }
      ,
      "collider":
      {
        "shapes":
        [
          {
            "shape": "box"
            ,
            "half_size": "1.17037 0.554713 0.0265637"
            ,
            "offset":
            {
              "pos": "0.0 0.554713 0.0"
            }
            ,
            "group": "scenario"
          }
        ]
      }
      ,
      "render":
      {
        "mesh": "data/meshes/props/sign_cocacola/sign_cocacola.mesh"
        ,
        "color": "0.345098 0.780392 0.882353 1.0"
        ,
        "can_be_instanced": true
        ,
        "materials":
        [
          "data/materials/props/sign_cocacola/material_Material_sign_cocacola/material_Material_sign_cocacola.material"
        ]
      }
      ,
	  "tags" : ["metal"],
      "abs_aabb":
      {
      }
    }
  }
]
