[
  {
    "entity":
    {
      "name": "stone"
      ,
      "transform":
      {
        "pos": "0.0 0.0 0.0"
        ,
        "rotation": "0.0 0.0 0.0 -1.0"
      }
      ,
      "collider":
      {
        "shapes":
        [
          {
            "shape": "trimesh"
            ,
            "collision_mesh": "data/meshes/props/stone/collider_stone.col_mesh"
          }
        ]
      }
      ,
      "render":
      {
        "mesh": "data/meshes/props/stone/stone.mesh"
        ,
        "color": "0.345098 0.780392 0.882353 1.0"
        ,
        "can_be_instanced": true
        ,
        "materials":
        [
          "data/materials/props/stone/material_stone/material_stone.material"
        ]
      }
      ,
      "abs_aabb":
      {
      }
    }
  }
]
