[
  {
    "entity":
    {
      "name": "tendereteuno"
      ,
      "transform":
      {
        "pos": "0.0 0.0 0.0"
        ,
        "rotation": "0.0 0.0 0.0 -1.0"
      }
      ,
      "collider":
      {
        "shapes":
        [
          {
            "shape": "trimesh"
            ,
            "collision_mesh": "data/meshes/props/tenderete_uno_textdos_prefab/tendereteuno_collider.col_mesh"
            ,
            "group": "scenario"
          }
        ]
      }
      ,
      "render":
      {
        "mesh": "data/meshes/props/tenderete_uno_textdos_prefab/tendereteuno.mesh"
        ,
        "color": "0.341176 0.878431 0.776471 1.0"
        ,
        "can_be_instanced": true
        ,
        "materials":
        [
          "data/materials/props/tenderete_uno_textdos_prefab/material_tendereteunotextdos/material_tendereteunotextdos.material"
        ]
      },
	  "tags" : ["wood"],
      "abs_aabb":
      {
      }
    }
  }
]
