[
  {
    "entity":
    {
      "name": "tenderetetres_dos"
      ,
      "transform":
      {
        "pos": "0.0 0.0 0.0"
        ,
        "rotation": "0.0 0.0 0.0 -1.0"
      }
      ,
      "collider":
      {
        "shapes":
        [
          {
            "shape": "trimesh"
            ,
            "collision_mesh": "data/meshes/props/tenderete_tres_textdos_prefab/tenderetetres_dos_collider.col_mesh"
            ,
            "group": "scenario"
          }
        ]
      }
      ,
      "render":
      {
        "mesh": "data/meshes/props/tenderete_tres_textdos_prefab/tenderetetres_dos.mesh"
        ,
        "color": "0.764706 0.345098 0.882353 1.0"
        ,
        "can_be_instanced": true
        ,
        "materials":
        [
          "data/materials/props/tenderete_tres_textdos_prefab/material_tenderetetrestextdos/material_tenderetetrestextdos.material"
        ]
      }
      ,
	  "tags" : ["wood"],
      "abs_aabb":
      {
      }
    }
  }
]
