[
  {
    "entity": {
      "name": "WoodDoor",
      "transform": {
        "pos": "0.0 0.0 0.0",
        "rotation": "0.0 0.0 0.0 -1.0"
      },
      "door": {
        "LeftDoorName": "DoorLeft",
        "open_door_sound_event": "event:/Effects/OpenDoor",
        "close_door_sound_event": "event:/Effects/CloseDoor"
      },
      "abs_aabb": {},
      "local_aabb": {}
    }
  },
  {
    "entity": {
      "name": "DoorLeft",
      "transform": {
        "pos": "0.0 0.0 0.0",
        "rotation": "0.0 0.0 0.0 -1.0"
      },
      "collider": {
        "dynamic": true,
        "lock_flags": {
          "linear": "xyz",
          "angular": "xz"
        },
        "shapes": [
          {
            "shape": "box",
            "half_size": "0.794471 1.59059 0.123679",
            "offset": {
              "pos": "0.0 1.59059 0.0"
            },
            "group": "scenario",
            "mask": [
              "player",
              "enemy",
              "ragdoll",
              "DynamicScenario",
              "pickUps",
              "bullets",
              "particles"
            ]
          }
        ]
      },
      "rigid_body": {
        "mass": 0.0,
        "inertia": "0.0 0.0 0.0"
      },
      "render": {
        "color": "0.345098 0.564706 0.882353 1.0",
        "can_be_instanced": false,
        "meshes": [
          {
            "mesh": "data/meshes/props/wooddoor/wooddoor.mesh",
            "material": "data/materials/props/wooddoor/material_wooddoor/material_wooddoor.material"
          },
          {
            "mesh": "data/meshes/props/wooddoor/wooddoor.mesh",
            "material": "data/materials/props/wooddoor/material_wooddoor/material_wooddoor_perception.material",
            "state": 1,
            "state_id": "perception",
            "visible": false
          }
        ]
      },
      "local_aabb": {},
      "abs_aabb": {},
      "tags": [
        "perception"
      ]
    }
  }
]