[
  {
    "entity":
    {
      "name": "WoodenBarrel_1"
      ,
      "transform":
      {
        "pos": "0.0 0.0 0.0"
        ,
        "rotation": "0.0 0.0 0.0 -1.0"
      }
      ,
      "collider":
      {
        "shapes":
        [
          {
            "shape": "trimesh"
            ,
            "collision_mesh": "data/meshes/props/WoodenBarrel_1/collider_woodenBarrel_1.col_mesh"
            ,
            "group": "scenario"
          }
        ]
      }
      ,
      "render":
      {
        "mesh": "data/meshes/props/WoodenBarrel_1/WoodenBarrel_1.mesh"
        ,
        "color": "0.0235294 0.529412 0.227451 1.0"
        ,
        "can_be_instanced": true
        ,
        "materials":
        [
          "data/materials/props/WoodenBarrel_1/material_Material_WoodenBarrel_1_wood/material_Material_WoodenBarrel_1_wood.material"
          ,
          "data/materials/props/WoodenBarrel_1/material_Material_WoodenBarrel_1_Metal/material_Material_WoodenBarrel_1_Metal.material"
        ]
      }
      ,
	  "tags" : ["wood"]
	  ,
      "abs_aabb":
      {
      }
    }
  }
]
