{
  "textures":
  {
    "albedo": "data/textures/arenas/muro_marron_torre_prefab/material_murocontorremarron/Material _143_Base_Color.dds"
    ,
    "normal": "data/textures/arenas/muro_marron_torre_prefab/material_murocontorremarron/Material _143_Normal_OpenGL.dds"
    ,
    "metallic": "data/textures/arenas/muro_marron_torre_prefab/material_murocontorremarron/Material _143_Metallic.dds"
    ,
    "roughness": "data/textures/arenas/muro_marron_torre_prefab/material_murocontorremarron/Material _143_Roughness.dds"
    ,
    "emissive": "data/textures/null_emissive.dds"
    ,
    "height": "data/textures/null_height.dds"
    ,
    "ao": "data/textures/arenas/muro_marron_torre_prefab/material_murocontorremarron/Material _143_Mixed_AO.dds"
  }
  ,
  "casts_shadows": true
  ,
  "shadows_material": "data/materials/shadows.material"
}
