{
  "textures":
  {
    "albedo": "data/textures/props/Totem/material_Material_Totem/toteum_Base_Color.dds"
    ,
    "normal": "data/textures/props/Totem/material_Material_Totem/toteum_Normal_OpenGL.dds"
    ,
    "metallic": "data/textures/props/Totem/material_Material_Totem/toteum_Metallic.dds"
    ,
    "roughness": "data/textures/props/Totem/material_Material_Totem/toteum_Roughness.dds"
    ,
    "emissive": "data/textures/null_emissive.dds"
    ,
    "height": "data/textures/null_height.dds"
    ,
    "ao": "data/textures/props/Totem/material_Material_Totem/toteum_Mixed_AO.dds"
  }
  ,
  "casts_shadows": true
  ,
  "technique": "perception_objs.tech",
  "ctes" : {
	"extra_constant" : {
		"name" : "Perception",
		"data" : {
			"PerceptionMask" : "perception_enemies"
		}
	}
  },
  "category" : "perception_enemies",
  "shadows_material": "data/materials/shadows.material"
}
