{
  "textures":
  {
    "albedo": "data/textures/props/Totem/material_Material_Totem/toteum_Base_Color.dds"
    ,
    "normal": "data/textures/props/Totem/material_Material_Totem/toteum_Normal_OpenGL.dds"
  },
  "casts_shadows": true,
  "technique": "perception_xray.tech",
  "ctes" : {
	"extra_constant" : {
		"name" : "Perception",
		"data" : {
			"PerceptionMask" : "perception_enemies"
		}
	}
  },
  "category" : "xray",
  "shadows_material": "data/materials/shadows.material"
}