{
  "technique": "objs_skin_blended.tech",
  "casts_shadows": true,
  "textures":
  {
    "albedo": "data/textures/enemyMelee/emBaseColor.dds",
    "normal": "data/textures/enemyMelee/emNormal.dds",
	"emissive" : "data/textures/enemyMelee/emEmissive.dds"
  },
   "category" : "transparent"
}
