{
  "technique": "perception_skinned.tech",
  "casts_shadows": true,
  "textures":
  {
    "albedo": "data/textures/inmortal/inmortal_albedo.dds",
    "normal": "data/textures/inmortal/inmortal_normal.dds"
  },
  "ctes" : {
	"extra_constant" : {
		"name" : "Perception",
		"data" : {
			"PerceptionMask" : "perception_enemies"
		}
	}
  },
  "category" : "perception_enemies"
}