{
  "technique": "objs_skin.tech",
  "casts_shadows": true,
  "textures":
  {
  	"albedo"	 : "data/textures/inmortal/inmortal_albedo.dds",
	"normal"     : "data/textures/inmortal/inmortal_normal.dds",
	"metallic"   : "data/textures/inmortal/inmortal_metalness.dds",
	"roughness"  : "data/textures/inmortal/inmortal_roughness.dds",
	"ao"         : "data/textures/inmortal/inmortal_mixed_AO.dds",
	"height"     : "data/textures/inmortal/inmortal_height.dds"
  }
}