{
  "technique": "shadows_instanced_culling_alpha.tech"
  ,
  "textures":
  {
    "albedo": "data/textures/props/grass/material_Grass/low_poly_grass_albedo.dds"
  }
  ,
  "category": "shadows"
  ,
  "casts_shadows": false
}
