{
  "textures":
  {
    "albedo": "data/textures/arenas/entrada_prefab/material_techo_entrada/Material _1023_Base_Color.dds"
    ,
    "normal": "data/textures/arenas/entrada_prefab/material_techo_entrada/Material _1023_Normal_OpenGL.dds"
    ,
    "metallic": "data/textures/arenas/entrada_prefab/material_techo_entrada/Material _1023_Metallic.dds"
    ,
    "roughness": "data/textures/arenas/entrada_prefab/material_techo_entrada/Material _1023_Roughness.dds"
    ,
    "emissive": "data/textures/null_emissive.dds"
    ,
    "height": "data/textures/null_height.dds"
    ,
    "ao": "data/textures/arenas/entrada_prefab/material_techo_entrada/Material _1023_Mixed_AO.dds"
  }
  ,
  "casts_shadows": true
  ,
  "shadows_material": "data/materials/shadows.material"
}
