{
  "technique": "objs_culled_by_gpu.tech"
  ,
  "textures":
  {
    "albedo": "data/textures/arenas/entrada_prefab/material_columnita_uno/Material _1018_Base_Color.dds"
    ,
    "normal": "data/textures/arenas/entrada_prefab/material_columnita_uno/Material _1018_Normal_OpenGL.dds"
    ,
    "metallic": "data/textures/arenas/entrada_prefab/material_columnita_uno/Material _1018_Metallic.dds"
    ,
    "roughness": "data/textures/arenas/entrada_prefab/material_columnita_uno/Material _1018_Roughness.dds"
    ,
    "emissive": "data/textures/null_emissive.dds"
    ,
    "height": "data/textures/null_height.dds"
    ,
    "ao": "data/textures/arenas/entrada_prefab/material_columnita_uno/Material _1018_Mixed_AO.dds"
  }
  ,
  "casts_shadows": true
  ,
  "shadows_material": "data/materials/shadows_instanced_gpu.material"
}
