{
  "textures":
  {
    "albedo": "data/textures/suelos/SueloNormal/GroundGrassAlbedo.dds",
    "normal": "data/textures/suelos/SueloNormal/GroundGrassNormal.dds",
    "metallic": "data/textures/black.dds",
    "roughness": "data/textures/white.dds"
  }
}