{
  "technique": "objs_culled_by_gpu.tech"
  ,
  "textures":
  {
    "albedo": "data/textures/props/woodenbox/material_woodbox/wooden_box_Base_Color.dds"
    ,
    "normal": "data/textures/props/woodenbox/material_woodbox/wooden_box_Normal_DirectX.dds"
    ,
    "metallic": "data/textures/null_metallic.dds"
    ,
    "roughness": "data/textures/props/woodenbox/material_woodbox/wooden_box_Roughness.dds"
    ,
    "emissive": "data/textures/null_emissive.dds"
    ,
    "height": "data/textures/null_height.dds"
    ,
    "ao": "data/textures/props/woodenbox/material_woodbox/wooden_box_Mixed_AO.dds"
  }
  ,
  "casts_shadows": true
  ,
  "shadows_material": "data/materials/shadows_instanced_gpu.material"
}
